{
  "runtimeTarget": {
    "name": ".NETCoreApp,Version=v3.1",
    "signature": ""
  },
  "compilationOptions": {},
  "targets": {
    ".NETCoreApp,Version=v3.1": {
      "RoslynSyntaxWalker/1.0.0": {
        "dependencies": {
          "Microsoft.Build": "16.5.0",
          "Microsoft.Build.Tasks.Core": "16.5.0",
          "Microsoft.Build.Utilities.Core": "16.5.0",
          "Microsoft.CodeAnalysis.CSharp.Features": "3.5.0",
          "Microsoft.CodeAnalysis.Workspaces.MSBuild": "3.5.0",
          "Newtonsoft.Json": "12.0.3",
          "Shygen.Runtime": "1.0.0"
        },
        "runtime": {
          "RoslynSyntaxWalker.dll": {}
        }
      },
      "Humanizer.Core/2.2.0": {
        "dependencies": {
          "NETStandard.Library": "1.6.1"
        },
        "runtime": {
          "lib/netstandard1.0/Humanizer.dll": {
            "assemblyVersion": "2.2.0.0",
            "fileVersion": "2.2.0.0"
          }
        }
      },
      "JetBrains.Annotations/2019.1.3": {
        "runtime": {
          "lib/netstandard2.0/JetBrains.Annotations.dll": {
            "assemblyVersion": "2019.1.3.0",
            "fileVersion": "2019.1.3.0"
          }
        }
      },
      "Microsoft.Build/16.5.0": {
        "dependencies": {
          "Microsoft.Build.Framework": "16.5.0",
          "Microsoft.Win32.Registry": "4.3.0",
          "System.Collections.Immutable": "1.5.0",
          "System.Diagnostics.TraceSource": "4.0.0",
          "System.Memory": "4.5.3",
          "System.Reflection.Metadata": "1.6.0",
          "System.Reflection.TypeExtensions": "4.3.0",
          "System.Runtime.Loader": "4.0.0",
          "System.Security.Principal.Windows": "4.3.0",
          "System.Text.Encoding.CodePages": "4.5.1",
          "System.Threading.Tasks.Dataflow": "4.9.0"
        },
        "runtime": {
          "lib/netcoreapp2.1/Microsoft.Build.dll": {
            "assemblyVersion": "15.1.0.0",
            "fileVersion": "16.5.0.12403"
          }
        }
      },
      "Microsoft.Build.Framework/16.5.0": {
        "dependencies": {
          "System.Runtime.Serialization.Primitives": "4.1.1",
          "System.Threading.Thread": "4.0.0"
        },
        "runtime": {
          "lib/netstandard2.0/Microsoft.Build.Framework.dll": {
            "assemblyVersion": "15.1.0.0",
            "fileVersion": "16.5.0.12403"
          }
        }
      },
      "Microsoft.Build.Tasks.Core/16.5.0": {
        "dependencies": {
          "Microsoft.Build.Framework": "16.5.0",
          "Microsoft.Build.Utilities.Core": "16.5.0",
          "Microsoft.Win32.Registry": "4.3.0",
          "System.CodeDom": "4.4.0",
          "System.Collections.Immutable": "1.5.0",
          "System.Linq.Parallel": "4.0.1",
          "System.Net.Http": "4.3.4",
          "System.Reflection.Metadata": "1.6.0",
          "System.Reflection.TypeExtensions": "4.3.0",
          "System.Resources.Extensions": "4.6.0",
          "System.Resources.Writer": "4.0.0",
          "System.Threading.Tasks.Dataflow": "4.9.0"
        },
        "runtime": {
          "lib/netstandard2.0/Microsoft.Build.Tasks.Core.dll": {
            "assemblyVersion": "15.1.0.0",
            "fileVersion": "16.5.0.12403"
          }
        }
      },
      "Microsoft.Build.Utilities.Core/16.5.0": {
        "dependencies": {
          "Microsoft.Build.Framework": "16.5.0",
          "Microsoft.Win32.Registry": "4.3.0",
          "System.Collections.Immutable": "1.5.0",
          "System.Text.Encoding.CodePages": "4.5.1"
        },
        "runtime": {
          "lib/netstandard2.0/Microsoft.Build.Utilities.Core.dll": {
            "assemblyVersion": "15.1.0.0",
            "fileVersion": "16.5.0.12403"
          }
        }
      },
      "Microsoft.CodeAnalysis.Analyzers/3.0.0-beta2.20059.3": {},
      "Microsoft.CodeAnalysis.AnalyzerUtilities/3.0.0": {
        "runtime": {
          "lib/netstandard2.0/Microsoft.CodeAnalysis.AnalyzerUtilities.dll": {
            "assemblyVersion": "3.0.0.0",
            "fileVersion": "3.0.19.52501"
          }
        }
      },
      "Microsoft.CodeAnalysis.Common/3.5.0": {
        "dependencies": {
          "Microsoft.CodeAnalysis.Analyzers": "3.0.0-beta2.20059.3",
          "System.Collections.Immutable": "1.5.0",
          "System.Memory": "4.5.3",
          "System.Reflection.Metadata": "1.6.0",
          "System.Runtime.CompilerServices.Unsafe": "4.6.0",
          "System.Text.Encoding.CodePages": "4.5.1",
          "System.Threading.Tasks.Extensions": "4.5.3"
        },
        "runtime": {
          "lib/netstandard2.0/Microsoft.CodeAnalysis.dll": {
            "assemblyVersion": "3.5.0.0",
            "fileVersion": "3.500.20.15305"
          }
        },
        "resources": {
          "lib/netstandard2.0/cs/Microsoft.CodeAnalysis.resources.dll": {
            "locale": "cs"
          },
          "lib/netstandard2.0/de/Microsoft.CodeAnalysis.resources.dll": {
            "locale": "de"
          },
          "lib/netstandard2.0/es/Microsoft.CodeAnalysis.resources.dll": {
            "locale": "es"
          },
          "lib/netstandard2.0/fr/Microsoft.CodeAnalysis.resources.dll": {
            "locale": "fr"
          },
          "lib/netstandard2.0/it/Microsoft.CodeAnalysis.resources.dll": {
            "locale": "it"
          },
          "lib/netstandard2.0/ja/Microsoft.CodeAnalysis.resources.dll": {
            "locale": "ja"
          },
          "lib/netstandard2.0/ko/Microsoft.CodeAnalysis.resources.dll": {
            "locale": "ko"
          },
          "lib/netstandard2.0/pl/Microsoft.CodeAnalysis.resources.dll": {
            "locale": "pl"
          },
          "lib/netstandard2.0/pt-BR/Microsoft.CodeAnalysis.resources.dll": {
            "locale": "pt-BR"
          },
          "lib/netstandard2.0/ru/Microsoft.CodeAnalysis.resources.dll": {
            "locale": "ru"
          },
          "lib/netstandard2.0/tr/Microsoft.CodeAnalysis.resources.dll": {
            "locale": "tr"
          },
          "lib/netstandard2.0/zh-Hans/Microsoft.CodeAnalysis.resources.dll": {
            "locale": "zh-Hans"
          },
          "lib/netstandard2.0/zh-Hant/Microsoft.CodeAnalysis.resources.dll": {
            "locale": "zh-Hant"
          }
        }
      },
      "Microsoft.CodeAnalysis.CSharp/3.5.0": {
        "dependencies": {
          "Microsoft.CodeAnalysis.Common": "3.5.0"
        },
        "runtime": {
          "lib/netstandard2.0/Microsoft.CodeAnalysis.CSharp.dll": {
            "assemblyVersion": "3.5.0.0",
            "fileVersion": "3.500.20.15305"
          }
        },
        "resources": {
          "lib/netstandard2.0/cs/Microsoft.CodeAnalysis.CSharp.resources.dll": {
            "locale": "cs"
          },
          "lib/netstandard2.0/de/Microsoft.CodeAnalysis.CSharp.resources.dll": {
            "locale": "de"
          },
          "lib/netstandard2.0/es/Microsoft.CodeAnalysis.CSharp.resources.dll": {
            "locale": "es"
          },
          "lib/netstandard2.0/fr/Microsoft.CodeAnalysis.CSharp.resources.dll": {
            "locale": "fr"
          },
          "lib/netstandard2.0/it/Microsoft.CodeAnalysis.CSharp.resources.dll": {
            "locale": "it"
          },
          "lib/netstandard2.0/ja/Microsoft.CodeAnalysis.CSharp.resources.dll": {
            "locale": "ja"
          },
          "lib/netstandard2.0/ko/Microsoft.CodeAnalysis.CSharp.resources.dll": {
            "locale": "ko"
          },
          "lib/netstandard2.0/pl/Microsoft.CodeAnalysis.CSharp.resources.dll": {
            "locale": "pl"
          },
          "lib/netstandard2.0/pt-BR/Microsoft.CodeAnalysis.CSharp.resources.dll": {
            "locale": "pt-BR"
          },
          "lib/netstandard2.0/ru/Microsoft.CodeAnalysis.CSharp.resources.dll": {
            "locale": "ru"
          },
          "lib/netstandard2.0/tr/Microsoft.CodeAnalysis.CSharp.resources.dll": {
            "locale": "tr"
          },
          "lib/netstandard2.0/zh-Hans/Microsoft.CodeAnalysis.CSharp.resources.dll": {
            "locale": "zh-Hans"
          },
          "lib/netstandard2.0/zh-Hant/Microsoft.CodeAnalysis.CSharp.resources.dll": {
            "locale": "zh-Hant"
          }
        }
      },
      "Microsoft.CodeAnalysis.CSharp.Features/3.5.0": {
        "dependencies": {
          "Humanizer.Core": "2.2.0",
          "Microsoft.CodeAnalysis.CSharp": "3.5.0",
          "Microsoft.CodeAnalysis.CSharp.Workspaces": "3.5.0",
          "Microsoft.CodeAnalysis.Common": "3.5.0",
          "Microsoft.CodeAnalysis.Features": "3.5.0",
          "Microsoft.CodeAnalysis.Workspaces.Common": "3.5.0"
        },
        "runtime": {
          "lib/netstandard2.0/Microsoft.CodeAnalysis.CSharp.Features.dll": {
            "assemblyVersion": "3.5.0.0",
            "fileVersion": "3.500.20.15305"
          }
        },
        "resources": {
          "lib/netstandard2.0/cs/Microsoft.CodeAnalysis.CSharp.Features.resources.dll": {
            "locale": "cs"
          },
          "lib/netstandard2.0/de/Microsoft.CodeAnalysis.CSharp.Features.resources.dll": {
            "locale": "de"
          },
          "lib/netstandard2.0/es/Microsoft.CodeAnalysis.CSharp.Features.resources.dll": {
            "locale": "es"
          },
          "lib/netstandard2.0/fr/Microsoft.CodeAnalysis.CSharp.Features.resources.dll": {
            "locale": "fr"
          },
          "lib/netstandard2.0/it/Microsoft.CodeAnalysis.CSharp.Features.resources.dll": {
            "locale": "it"
          },
          "lib/netstandard2.0/ja/Microsoft.CodeAnalysis.CSharp.Features.resources.dll": {
            "locale": "ja"
          },
          "lib/netstandard2.0/ko/Microsoft.CodeAnalysis.CSharp.Features.resources.dll": {
            "locale": "ko"
          },
          "lib/netstandard2.0/pl/Microsoft.CodeAnalysis.CSharp.Features.resources.dll": {
            "locale": "pl"
          },
          "lib/netstandard2.0/pt-BR/Microsoft.CodeAnalysis.CSharp.Features.resources.dll": {
            "locale": "pt-BR"
          },
          "lib/netstandard2.0/ru/Microsoft.CodeAnalysis.CSharp.Features.resources.dll": {
            "locale": "ru"
          },
          "lib/netstandard2.0/tr/Microsoft.CodeAnalysis.CSharp.Features.resources.dll": {
            "locale": "tr"
          },
          "lib/netstandard2.0/zh-Hans/Microsoft.CodeAnalysis.CSharp.Features.resources.dll": {
            "locale": "zh-Hans"
          },
          "lib/netstandard2.0/zh-Hant/Microsoft.CodeAnalysis.CSharp.Features.resources.dll": {
            "locale": "zh-Hant"
          }
        }
      },
      "Microsoft.CodeAnalysis.CSharp.Workspaces/3.5.0": {
        "dependencies": {
          "Microsoft.CodeAnalysis.CSharp": "3.5.0",
          "Microsoft.CodeAnalysis.Common": "3.5.0",
          "Microsoft.CodeAnalysis.Workspaces.Common": "3.5.0"
        },
        "runtime": {
          "lib/netstandard2.0/Microsoft.CodeAnalysis.CSharp.Workspaces.dll": {
            "assemblyVersion": "3.5.0.0",
            "fileVersion": "3.500.20.15305"
          }
        },
        "resources": {
          "lib/netstandard2.0/cs/Microsoft.CodeAnalysis.CSharp.Workspaces.resources.dll": {
            "locale": "cs"
          },
          "lib/netstandard2.0/de/Microsoft.CodeAnalysis.CSharp.Workspaces.resources.dll": {
            "locale": "de"
          },
          "lib/netstandard2.0/es/Microsoft.CodeAnalysis.CSharp.Workspaces.resources.dll": {
            "locale": "es"
          },
          "lib/netstandard2.0/fr/Microsoft.CodeAnalysis.CSharp.Workspaces.resources.dll": {
            "locale": "fr"
          },
          "lib/netstandard2.0/it/Microsoft.CodeAnalysis.CSharp.Workspaces.resources.dll": {
            "locale": "it"
          },
          "lib/netstandard2.0/ja/Microsoft.CodeAnalysis.CSharp.Workspaces.resources.dll": {
            "locale": "ja"
          },
          "lib/netstandard2.0/ko/Microsoft.CodeAnalysis.CSharp.Workspaces.resources.dll": {
            "locale": "ko"
          },
          "lib/netstandard2.0/pl/Microsoft.CodeAnalysis.CSharp.Workspaces.resources.dll": {
            "locale": "pl"
          },
          "lib/netstandard2.0/pt-BR/Microsoft.CodeAnalysis.CSharp.Workspaces.resources.dll": {
            "locale": "pt-BR"
          },
          "lib/netstandard2.0/ru/Microsoft.CodeAnalysis.CSharp.Workspaces.resources.dll": {
            "locale": "ru"
          },
          "lib/netstandard2.0/tr/Microsoft.CodeAnalysis.CSharp.Workspaces.resources.dll": {
            "locale": "tr"
          },
          "lib/netstandard2.0/zh-Hans/Microsoft.CodeAnalysis.CSharp.Workspaces.resources.dll": {
            "locale": "zh-Hans"
          },
          "lib/netstandard2.0/zh-Hant/Microsoft.CodeAnalysis.CSharp.Workspaces.resources.dll": {
            "locale": "zh-Hant"
          }
        }
      },
      "Microsoft.CodeAnalysis.Features/3.5.0": {
        "dependencies": {
          "Microsoft.CodeAnalysis.AnalyzerUtilities": "3.0.0",
          "Microsoft.CodeAnalysis.Common": "3.5.0",
          "Microsoft.CodeAnalysis.Workspaces.Common": "3.5.0",
          "Microsoft.DiaSymReader": "1.3.0",
          "System.Threading.Tasks.Extensions": "4.5.3"
        },
        "runtime": {
          "lib/netstandard2.0/Microsoft.CodeAnalysis.Features.dll": {
            "assemblyVersion": "3.5.0.0",
            "fileVersion": "3.500.20.15305"
          }
        },
        "resources": {
          "lib/netstandard2.0/cs/Microsoft.CodeAnalysis.Features.resources.dll": {
            "locale": "cs"
          },
          "lib/netstandard2.0/de/Microsoft.CodeAnalysis.Features.resources.dll": {
            "locale": "de"
          },
          "lib/netstandard2.0/es/Microsoft.CodeAnalysis.Features.resources.dll": {
            "locale": "es"
          },
          "lib/netstandard2.0/fr/Microsoft.CodeAnalysis.Features.resources.dll": {
            "locale": "fr"
          },
          "lib/netstandard2.0/it/Microsoft.CodeAnalysis.Features.resources.dll": {
            "locale": "it"
          },
          "lib/netstandard2.0/ja/Microsoft.CodeAnalysis.Features.resources.dll": {
            "locale": "ja"
          },
          "lib/netstandard2.0/ko/Microsoft.CodeAnalysis.Features.resources.dll": {
            "locale": "ko"
          },
          "lib/netstandard2.0/pl/Microsoft.CodeAnalysis.Features.resources.dll": {
            "locale": "pl"
          },
          "lib/netstandard2.0/pt-BR/Microsoft.CodeAnalysis.Features.resources.dll": {
            "locale": "pt-BR"
          },
          "lib/netstandard2.0/ru/Microsoft.CodeAnalysis.Features.resources.dll": {
            "locale": "ru"
          },
          "lib/netstandard2.0/tr/Microsoft.CodeAnalysis.Features.resources.dll": {
            "locale": "tr"
          },
          "lib/netstandard2.0/zh-Hans/Microsoft.CodeAnalysis.Features.resources.dll": {
            "locale": "zh-Hans"
          },
          "lib/netstandard2.0/zh-Hant/Microsoft.CodeAnalysis.Features.resources.dll": {
            "locale": "zh-Hant"
          }
        }
      },
      "Microsoft.CodeAnalysis.Workspaces.Common/3.5.0": {
        "dependencies": {
          "Microsoft.CodeAnalysis.Common": "3.5.0",
          "System.Composition": "1.0.31"
        },
        "runtime": {
          "lib/netstandard2.0/Microsoft.CodeAnalysis.Workspaces.dll": {
            "assemblyVersion": "3.5.0.0",
            "fileVersion": "3.500.20.15305"
          }
        },
        "resources": {
          "lib/netstandard2.0/cs/Microsoft.CodeAnalysis.Workspaces.resources.dll": {
            "locale": "cs"
          },
          "lib/netstandard2.0/de/Microsoft.CodeAnalysis.Workspaces.resources.dll": {
            "locale": "de"
          },
          "lib/netstandard2.0/es/Microsoft.CodeAnalysis.Workspaces.resources.dll": {
            "locale": "es"
          },
          "lib/netstandard2.0/fr/Microsoft.CodeAnalysis.Workspaces.resources.dll": {
            "locale": "fr"
          },
          "lib/netstandard2.0/it/Microsoft.CodeAnalysis.Workspaces.resources.dll": {
            "locale": "it"
          },
          "lib/netstandard2.0/ja/Microsoft.CodeAnalysis.Workspaces.resources.dll": {
            "locale": "ja"
          },
          "lib/netstandard2.0/ko/Microsoft.CodeAnalysis.Workspaces.resources.dll": {
            "locale": "ko"
          },
          "lib/netstandard2.0/pl/Microsoft.CodeAnalysis.Workspaces.resources.dll": {
            "locale": "pl"
          },
          "lib/netstandard2.0/pt-BR/Microsoft.CodeAnalysis.Workspaces.resources.dll": {
            "locale": "pt-BR"
          },
          "lib/netstandard2.0/ru/Microsoft.CodeAnalysis.Workspaces.resources.dll": {
            "locale": "ru"
          },
          "lib/netstandard2.0/tr/Microsoft.CodeAnalysis.Workspaces.resources.dll": {
            "locale": "tr"
          },
          "lib/netstandard2.0/zh-Hans/Microsoft.CodeAnalysis.Workspaces.resources.dll": {
            "locale": "zh-Hans"
          },
          "lib/netstandard2.0/zh-Hant/Microsoft.CodeAnalysis.Workspaces.resources.dll": {
            "locale": "zh-Hant"
          }
        }
      },
      "Microsoft.CodeAnalysis.Workspaces.MSBuild/3.5.0": {
        "dependencies": {
          "Microsoft.CodeAnalysis.Common": "3.5.0",
          "Microsoft.CodeAnalysis.Workspaces.Common": "3.5.0"
        },
        "runtime": {
          "lib/netcoreapp3.1/Microsoft.CodeAnalysis.Workspaces.MSBuild.dll": {
            "assemblyVersion": "3.5.0.0",
            "fileVersion": "3.500.20.15305"
          }
        },
        "resources": {
          "lib/netcoreapp3.1/cs/Microsoft.CodeAnalysis.Workspaces.MSBuild.resources.dll": {
            "locale": "cs"
          },
          "lib/netcoreapp3.1/de/Microsoft.CodeAnalysis.Workspaces.MSBuild.resources.dll": {
            "locale": "de"
          },
          "lib/netcoreapp3.1/es/Microsoft.CodeAnalysis.Workspaces.MSBuild.resources.dll": {
            "locale": "es"
          },
          "lib/netcoreapp3.1/fr/Microsoft.CodeAnalysis.Workspaces.MSBuild.resources.dll": {
            "locale": "fr"
          },
          "lib/netcoreapp3.1/it/Microsoft.CodeAnalysis.Workspaces.MSBuild.resources.dll": {
            "locale": "it"
          },
          "lib/netcoreapp3.1/ja/Microsoft.CodeAnalysis.Workspaces.MSBuild.resources.dll": {
            "locale": "ja"
          },
          "lib/netcoreapp3.1/ko/Microsoft.CodeAnalysis.Workspaces.MSBuild.resources.dll": {
            "locale": "ko"
          },
          "lib/netcoreapp3.1/pl/Microsoft.CodeAnalysis.Workspaces.MSBuild.resources.dll": {
            "locale": "pl"
          },
          "lib/netcoreapp3.1/pt-BR/Microsoft.CodeAnalysis.Workspaces.MSBuild.resources.dll": {
            "locale": "pt-BR"
          },
          "lib/netcoreapp3.1/ru/Microsoft.CodeAnalysis.Workspaces.MSBuild.resources.dll": {
            "locale": "ru"
          },
          "lib/netcoreapp3.1/tr/Microsoft.CodeAnalysis.Workspaces.MSBuild.resources.dll": {
            "locale": "tr"
          },
          "lib/netcoreapp3.1/zh-Hans/Microsoft.CodeAnalysis.Workspaces.MSBuild.resources.dll": {
            "locale": "zh-Hans"
          },
          "lib/netcoreapp3.1/zh-Hant/Microsoft.CodeAnalysis.Workspaces.MSBuild.resources.dll": {
            "locale": "zh-Hant"
          }
        }
      },
      "Microsoft.DiaSymReader/1.3.0": {
        "dependencies": {
          "NETStandard.Library": "1.6.1"
        },
        "runtime": {
          "lib/netstandard1.1/Microsoft.DiaSymReader.dll": {
            "assemblyVersion": "1.3.0.0",
            "fileVersion": "1.3.0.63011"
          }
        }
      },
      "Microsoft.NETCore.Platforms/2.1.2": {},
      "Microsoft.NETCore.Targets/1.1.0": {},
      "Microsoft.Win32.Primitives/4.3.0": {
        "dependencies": {
          "Microsoft.NETCore.Platforms": "2.1.2",
          "Microsoft.NETCore.Targets": "1.1.0",
          "System.Runtime": "4.3.0"
        }
      },
      "Microsoft.Win32.Registry/4.3.0": {
        "dependencies": {
          "Microsoft.NETCore.Platforms": "2.1.2",
          "System.Collections": "4.3.0",
          "System.Globalization": "4.3.0",
          "System.Resources.ResourceManager": "4.3.0",
          "System.Runtime": "4.3.0",
          "System.Runtime.Extensions": "4.3.0",
          "System.Runtime.Handles": "4.3.0",
          "System.Runtime.InteropServices": "4.3.0"
        }
      },
      "NETStandard.Library/1.6.1": {
        "dependencies": {
          "Microsoft.NETCore.Platforms": "2.1.2",
          "Microsoft.Win32.Primitives": "4.3.0",
          "System.AppContext": "4.3.0",
          "System.Collections": "4.3.0",
          "System.Collections.Concurrent": "4.3.0",
          "System.Console": "4.3.0",
          "System.Diagnostics.Debug": "4.3.0",
          "System.Diagnostics.Tools": "4.3.0",
          "System.Diagnostics.Tracing": "4.3.0",
          "System.Globalization": "4.3.0",
          "System.Globalization.Calendars": "4.3.0",
          "System.IO": "4.3.0",
          "System.IO.Compression": "4.3.0",
          "System.IO.Compression.ZipFile": "4.3.0",
          "System.IO.FileSystem": "4.3.0",
          "System.IO.FileSystem.Primitives": "4.3.0",
          "System.Linq": "4.3.0",
          "System.Linq.Expressions": "4.3.0",
          "System.Net.Http": "4.3.4",
          "System.Net.Primitives": "4.3.0",
          "System.Net.Sockets": "4.3.0",
          "System.ObjectModel": "4.3.0",
          "System.Reflection": "4.3.0",
          "System.Reflection.Extensions": "4.3.0",
          "System.Reflection.Primitives": "4.3.0",
          "System.Resources.ResourceManager": "4.3.0",
          "System.Runtime": "4.3.0",
          "System.Runtime.Extensions": "4.3.0",
          "System.Runtime.Handles": "4.3.0",
          "System.Runtime.InteropServices": "4.3.0",
          "System.Runtime.InteropServices.RuntimeInformation": "4.3.0",
          "System.Runtime.Numerics": "4.3.0",
          "System.Security.Cryptography.Algorithms": "4.3.0",
          "System.Security.Cryptography.Encoding": "4.3.0",
          "System.Security.Cryptography.Primitives": "4.3.0",
          "System.Security.Cryptography.X509Certificates": "4.3.0",
          "System.Text.Encoding": "4.3.0",
          "System.Text.Encoding.Extensions": "4.3.0",
          "System.Text.RegularExpressions": "4.3.0",
          "System.Threading": "4.3.0",
          "System.Threading.Tasks": "4.3.0",
          "System.Threading.Timer": "4.3.0",
          "System.Xml.ReaderWriter": "4.3.0",
          "System.Xml.XDocument": "4.3.0"
        }
      },
      "Newtonsoft.Json/12.0.3": {
        "runtime": {
          "lib/netstandard2.0/Newtonsoft.Json.dll": {
            "assemblyVersion": "12.0.0.0",
            "fileVersion": "12.0.3.23909"
          }
        }
      },
      "runtime.debian.8-x64.runtime.native.System.Security.Cryptography.OpenSsl/4.3.2": {},
      "runtime.fedora.23-x64.runtime.native.System.Security.Cryptography.OpenSsl/4.3.2": {},
      "runtime.fedora.24-x64.runtime.native.System.Security.Cryptography.OpenSsl/4.3.2": {},
      "runtime.native.System/4.3.0": {
        "dependencies": {
          "Microsoft.NETCore.Platforms": "2.1.2",
          "Microsoft.NETCore.Targets": "1.1.0"
        }
      },
      "runtime.native.System.IO.Compression/4.3.0": {
        "dependencies": {
          "Microsoft.NETCore.Platforms": "2.1.2",
          "Microsoft.NETCore.Targets": "1.1.0"
        }
      },
      "runtime.native.System.Net.Http/4.3.0": {
        "dependencies": {
          "Microsoft.NETCore.Platforms": "2.1.2",
          "Microsoft.NETCore.Targets": "1.1.0"
        }
      },
      "runtime.native.System.Security.Cryptography.Apple/4.3.0": {
        "dependencies": {
          "runtime.osx.10.10-x64.runtime.native.System.Security.Cryptography.Apple": "4.3.0"
        }
      },
      "runtime.native.System.Security.Cryptography.OpenSsl/4.3.2": {
        "dependencies": {
          "runtime.debian.8-x64.runtime.native.System.Security.Cryptography.OpenSsl": "4.3.2",
          "runtime.fedora.23-x64.runtime.native.System.Security.Cryptography.OpenSsl": "4.3.2",
          "runtime.fedora.24-x64.runtime.native.System.Security.Cryptography.OpenSsl": "4.3.2",
          "runtime.opensuse.13.2-x64.runtime.native.System.Security.Cryptography.OpenSsl": "4.3.2",
          "runtime.opensuse.42.1-x64.runtime.native.System.Security.Cryptography.OpenSsl": "4.3.2",
          "runtime.osx.10.10-x64.runtime.native.System.Security.Cryptography.OpenSsl": "4.3.2",
          "runtime.rhel.7-x64.runtime.native.System.Security.Cryptography.OpenSsl": "4.3.2",
          "runtime.ubuntu.14.04-x64.runtime.native.System.Security.Cryptography.OpenSsl": "4.3.2",
          "runtime.ubuntu.16.04-x64.runtime.native.System.Security.Cryptography.OpenSsl": "4.3.2",
          "runtime.ubuntu.16.10-x64.runtime.native.System.Security.Cryptography.OpenSsl": "4.3.2"
        }
      },
      "runtime.opensuse.13.2-x64.runtime.native.System.Security.Cryptography.OpenSsl/4.3.2": {},
      "runtime.opensuse.42.1-x64.runtime.native.System.Security.Cryptography.OpenSsl/4.3.2": {},
      "runtime.osx.10.10-x64.runtime.native.System.Security.Cryptography.Apple/4.3.0": {},
      "runtime.osx.10.10-x64.runtime.native.System.Security.Cryptography.OpenSsl/4.3.2": {},
      "runtime.rhel.7-x64.runtime.native.System.Security.Cryptography.OpenSsl/4.3.2": {},
      "runtime.ubuntu.14.04-x64.runtime.native.System.Security.Cryptography.OpenSsl/4.3.2": {},
      "runtime.ubuntu.16.04-x64.runtime.native.System.Security.Cryptography.OpenSsl/4.3.2": {},
      "runtime.ubuntu.16.10-x64.runtime.native.System.Security.Cryptography.OpenSsl/4.3.2": {},
      "System.AppContext/4.3.0": {
        "dependencies": {
          "System.Runtime": "4.3.0"
        }
      },
      "System.Buffers/4.3.0": {
        "dependencies": {
          "System.Diagnostics.Debug": "4.3.0",
          "System.Diagnostics.Tracing": "4.3.0",
          "System.Resources.ResourceManager": "4.3.0",
          "System.Runtime": "4.3.0",
          "System.Threading": "4.3.0"
        }
      },
      "System.CodeDom/4.4.0": {
        "runtime": {
          "lib/netstandard2.0/System.CodeDom.dll": {
            "assemblyVersion": "4.0.0.0",
            "fileVersion": "4.6.25519.3"
          }
        }
      },
      "System.Collections/4.3.0": {
        "dependencies": {
          "Microsoft.NETCore.Platforms": "2.1.2",
          "Microsoft.NETCore.Targets": "1.1.0",
          "System.Runtime": "4.3.0"
        }
      },
      "System.Collections.Concurrent/4.3.0": {
        "dependencies": {
          "System.Collections": "4.3.0",
          "System.Diagnostics.Debug": "4.3.0",
          "System.Diagnostics.Tracing": "4.3.0",
          "System.Globalization": "4.3.0",
          "System.Reflection": "4.3.0",
          "System.Resources.ResourceManager": "4.3.0",
          "System.Runtime": "4.3.0",
          "System.Runtime.Extensions": "4.3.0",
          "System.Threading": "4.3.0",
          "System.Threading.Tasks": "4.3.0"
        }
      },
      "System.Collections.Immutable/1.5.0": {},
      "System.Composition/1.0.31": {
        "dependencies": {
          "System.Composition.AttributedModel": "1.0.31",
          "System.Composition.Convention": "1.0.31",
          "System.Composition.Hosting": "1.0.31",
          "System.Composition.Runtime": "1.0.31",
          "System.Composition.TypedParts": "1.0.31"
        }
      },
      "System.Composition.AttributedModel/1.0.31": {
        "dependencies": {
          "System.Reflection": "4.3.0",
          "System.Runtime": "4.3.0"
        },
        "runtime": {
          "lib/netstandard1.0/System.Composition.AttributedModel.dll": {
            "assemblyVersion": "1.0.31.0",
            "fileVersion": "4.6.24705.1"
          }
        }
      },
      "System.Composition.Convention/1.0.31": {
        "dependencies": {
          "System.Collections": "4.3.0",
          "System.Composition.AttributedModel": "1.0.31",
          "System.Diagnostics.Debug": "4.3.0",
          "System.Diagnostics.Tools": "4.3.0",
          "System.Globalization": "4.3.0",
          "System.Linq": "4.3.0",
          "System.Linq.Expressions": "4.3.0",
          "System.Reflection": "4.3.0",
          "System.Reflection.Extensions": "4.3.0",
          "System.Resources.ResourceManager": "4.3.0",
          "System.Runtime": "4.3.0",
          "System.Threading": "4.3.0"
        },
        "runtime": {
          "lib/netstandard1.0/System.Composition.Convention.dll": {
            "assemblyVersion": "1.0.31.0",
            "fileVersion": "4.6.24705.1"
          }
        }
      },
      "System.Composition.Hosting/1.0.31": {
        "dependencies": {
          "System.Collections": "4.3.0",
          "System.Composition.Runtime": "1.0.31",
          "System.Diagnostics.Debug": "4.3.0",
          "System.Diagnostics.Tools": "4.3.0",
          "System.Globalization": "4.3.0",
          "System.Linq": "4.3.0",
          "System.Linq.Expressions": "4.3.0",
          "System.ObjectModel": "4.3.0",
          "System.Reflection": "4.3.0",
          "System.Reflection.Extensions": "4.3.0",
          "System.Resources.ResourceManager": "4.3.0",
          "System.Runtime": "4.3.0",
          "System.Threading": "4.3.0"
        },
        "runtime": {
          "lib/netstandard1.0/System.Composition.Hosting.dll": {
            "assemblyVersion": "1.0.31.0",
            "fileVersion": "4.6.24705.1"
          }
        }
      },
      "System.Composition.Runtime/1.0.31": {
        "dependencies": {
          "System.Collections": "4.3.0",
          "System.Diagnostics.Debug": "4.3.0",
          "System.Diagnostics.Tools": "4.3.0",
          "System.Globalization": "4.3.0",
          "System.Linq": "4.3.0",
          "System.Reflection": "4.3.0",
          "System.Resources.ResourceManager": "4.3.0",
          "System.Runtime": "4.3.0"
        },
        "runtime": {
          "lib/netstandard1.0/System.Composition.Runtime.dll": {
            "assemblyVersion": "1.0.31.0",
            "fileVersion": "4.6.24705.1"
          }
        }
      },
      "System.Composition.TypedParts/1.0.31": {
        "dependencies": {
          "System.Collections": "4.3.0",
          "System.Composition.AttributedModel": "1.0.31",
          "System.Composition.Hosting": "1.0.31",
          "System.Composition.Runtime": "1.0.31",
          "System.Diagnostics.Debug": "4.3.0",
          "System.Diagnostics.Tools": "4.3.0",
          "System.Globalization": "4.3.0",
          "System.Linq": "4.3.0",
          "System.Linq.Expressions": "4.3.0",
          "System.Reflection": "4.3.0",
          "System.Reflection.Extensions": "4.3.0",
          "System.Resources.ResourceManager": "4.3.0",
          "System.Runtime": "4.3.0",
          "System.Runtime.Extensions": "4.3.0"
        },
        "runtime": {
          "lib/netstandard1.0/System.Composition.TypedParts.dll": {
            "assemblyVersion": "1.0.31.0",
            "fileVersion": "4.6.24705.1"
          }
        }
      },
      "System.Console/4.3.0": {
        "dependencies": {
          "Microsoft.NETCore.Platforms": "2.1.2",
          "Microsoft.NETCore.Targets": "1.1.0",
          "System.IO": "4.3.0",
          "System.Runtime": "4.3.0",
          "System.Text.Encoding": "4.3.0"
        }
      },
      "System.Diagnostics.Debug/4.3.0": {
        "dependencies": {
          "Microsoft.NETCore.Platforms": "2.1.2",
          "Microsoft.NETCore.Targets": "1.1.0",
          "System.Runtime": "4.3.0"
        }
      },
      "System.Diagnostics.DiagnosticSource/4.3.0": {
        "dependencies": {
          "System.Collections": "4.3.0",
          "System.Diagnostics.Tracing": "4.3.0",
          "System.Reflection": "4.3.0",
          "System.Runtime": "4.3.0",
          "System.Threading": "4.3.0"
        }
      },
      "System.Diagnostics.Tools/4.3.0": {
        "dependencies": {
          "Microsoft.NETCore.Platforms": "2.1.2",
          "Microsoft.NETCore.Targets": "1.1.0",
          "System.Runtime": "4.3.0"
        }
      },
      "System.Diagnostics.TraceSource/4.0.0": {
        "dependencies": {
          "Microsoft.NETCore.Platforms": "2.1.2",
          "System.Collections": "4.3.0",
          "System.Diagnostics.Debug": "4.3.0",
          "System.Globalization": "4.3.0",
          "System.Resources.ResourceManager": "4.3.0",
          "System.Runtime": "4.3.0",
          "System.Runtime.Extensions": "4.3.0",
          "System.Threading": "4.3.0",
          "runtime.native.System": "4.3.0"
        }
      },
      "System.Diagnostics.Tracing/4.3.0": {
        "dependencies": {
          "Microsoft.NETCore.Platforms": "2.1.2",
          "Microsoft.NETCore.Targets": "1.1.0",
          "System.Runtime": "4.3.0"
        }
      },
      "System.Globalization/4.3.0": {
        "dependencies": {
          "Microsoft.NETCore.Platforms": "2.1.2",
          "Microsoft.NETCore.Targets": "1.1.0",
          "System.Runtime": "4.3.0"
        }
      },
      "System.Globalization.Calendars/4.3.0": {
        "dependencies": {
          "Microsoft.NETCore.Platforms": "2.1.2",
          "Microsoft.NETCore.Targets": "1.1.0",
          "System.Globalization": "4.3.0",
          "System.Runtime": "4.3.0"
        }
      },
      "System.Globalization.Extensions/4.3.0": {
        "dependencies": {
          "Microsoft.NETCore.Platforms": "2.1.2",
          "System.Globalization": "4.3.0",
          "System.Resources.ResourceManager": "4.3.0",
          "System.Runtime": "4.3.0",
          "System.Runtime.Extensions": "4.3.0",
          "System.Runtime.InteropServices": "4.3.0"
        }
      },
      "System.IO/4.3.0": {
        "dependencies": {
          "Microsoft.NETCore.Platforms": "2.1.2",
          "Microsoft.NETCore.Targets": "1.1.0",
          "System.Runtime": "4.3.0",
          "System.Text.Encoding": "4.3.0",
          "System.Threading.Tasks": "4.3.0"
        }
      },
      "System.IO.Compression/4.3.0": {
        "dependencies": {
          "Microsoft.NETCore.Platforms": "2.1.2",
          "System.Buffers": "4.3.0",
          "System.Collections": "4.3.0",
          "System.Diagnostics.Debug": "4.3.0",
          "System.IO": "4.3.0",
          "System.Resources.ResourceManager": "4.3.0",
          "System.Runtime": "4.3.0",
          "System.Runtime.Extensions": "4.3.0",
          "System.Runtime.Handles": "4.3.0",
          "System.Runtime.InteropServices": "4.3.0",
          "System.Text.Encoding": "4.3.0",
          "System.Threading": "4.3.0",
          "System.Threading.Tasks": "4.3.0",
          "runtime.native.System": "4.3.0",
          "runtime.native.System.IO.Compression": "4.3.0"
        }
      },
      "System.IO.Compression.ZipFile/4.3.0": {
        "dependencies": {
          "System.Buffers": "4.3.0",
          "System.IO": "4.3.0",
          "System.IO.Compression": "4.3.0",
          "System.IO.FileSystem": "4.3.0",
          "System.IO.FileSystem.Primitives": "4.3.0",
          "System.Resources.ResourceManager": "4.3.0",
          "System.Runtime": "4.3.0",
          "System.Runtime.Extensions": "4.3.0",
          "System.Text.Encoding": "4.3.0"
        }
      },
      "System.IO.FileSystem/4.3.0": {
        "dependencies": {
          "Microsoft.NETCore.Platforms": "2.1.2",
          "Microsoft.NETCore.Targets": "1.1.0",
          "System.IO": "4.3.0",
          "System.IO.FileSystem.Primitives": "4.3.0",
          "System.Runtime": "4.3.0",
          "System.Runtime.Handles": "4.3.0",
          "System.Text.Encoding": "4.3.0",
          "System.Threading.Tasks": "4.3.0"
        }
      },
      "System.IO.FileSystem.Primitives/4.3.0": {
        "dependencies": {
          "System.Runtime": "4.3.0"
        }
      },
      "System.Linq/4.3.0": {
        "dependencies": {
          "System.Collections": "4.3.0",
          "System.Diagnostics.Debug": "4.3.0",
          "System.Resources.ResourceManager": "4.3.0",
          "System.Runtime": "4.3.0",
          "System.Runtime.Extensions": "4.3.0"
        }
      },
      "System.Linq.Expressions/4.3.0": {
        "dependencies": {
          "System.Collections": "4.3.0",
          "System.Diagnostics.Debug": "4.3.0",
          "System.Globalization": "4.3.0",
          "System.IO": "4.3.0",
          "System.Linq": "4.3.0",
          "System.ObjectModel": "4.3.0",
          "System.Reflection": "4.3.0",
          "System.Reflection.Emit": "4.3.0",
          "System.Reflection.Emit.ILGeneration": "4.3.0",
          "System.Reflection.Emit.Lightweight": "4.3.0",
          "System.Reflection.Extensions": "4.3.0",
          "System.Reflection.Primitives": "4.3.0",
          "System.Reflection.TypeExtensions": "4.3.0",
          "System.Resources.ResourceManager": "4.3.0",
          "System.Runtime": "4.3.0",
          "System.Runtime.Extensions": "4.3.0",
          "System.Threading": "4.3.0"
        }
      },
      "System.Linq.Parallel/4.0.1": {
        "dependencies": {
          "System.Collections": "4.3.0",
          "System.Collections.Concurrent": "4.3.0",
          "System.Diagnostics.Debug": "4.3.0",
          "System.Diagnostics.Tracing": "4.3.0",
          "System.Linq": "4.3.0",
          "System.Resources.ResourceManager": "4.3.0",
          "System.Runtime": "4.3.0",
          "System.Runtime.Extensions": "4.3.0",
          "System.Threading": "4.3.0",
          "System.Threading.Tasks": "4.3.0"
        }
      },
      "System.Memory/4.5.3": {},
      "System.Net.Http/4.3.4": {
        "dependencies": {
          "Microsoft.NETCore.Platforms": "2.1.2",
          "System.Collections": "4.3.0",
          "System.Diagnostics.Debug": "4.3.0",
          "System.Diagnostics.DiagnosticSource": "4.3.0",
          "System.Diagnostics.Tracing": "4.3.0",
          "System.Globalization": "4.3.0",
          "System.Globalization.Extensions": "4.3.0",
          "System.IO": "4.3.0",
          "System.IO.FileSystem": "4.3.0",
          "System.Net.Primitives": "4.3.0",
          "System.Resources.ResourceManager": "4.3.0",
          "System.Runtime": "4.3.0",
          "System.Runtime.Extensions": "4.3.0",
          "System.Runtime.Handles": "4.3.0",
          "System.Runtime.InteropServices": "4.3.0",
          "System.Security.Cryptography.Algorithms": "4.3.0",
          "System.Security.Cryptography.Encoding": "4.3.0",
          "System.Security.Cryptography.OpenSsl": "4.3.0",
          "System.Security.Cryptography.Primitives": "4.3.0",
          "System.Security.Cryptography.X509Certificates": "4.3.0",
          "System.Text.Encoding": "4.3.0",
          "System.Threading": "4.3.0",
          "System.Threading.Tasks": "4.3.0",
          "runtime.native.System": "4.3.0",
          "runtime.native.System.Net.Http": "4.3.0",
          "runtime.native.System.Security.Cryptography.OpenSsl": "4.3.2"
        }
      },
      "System.Net.Primitives/4.3.0": {
        "dependencies": {
          "Microsoft.NETCore.Platforms": "2.1.2",
          "Microsoft.NETCore.Targets": "1.1.0",
          "System.Runtime": "4.3.0",
          "System.Runtime.Handles": "4.3.0"
        }
      },
      "System.Net.Sockets/4.3.0": {
        "dependencies": {
          "Microsoft.NETCore.Platforms": "2.1.2",
          "Microsoft.NETCore.Targets": "1.1.0",
          "System.IO": "4.3.0",
          "System.Net.Primitives": "4.3.0",
          "System.Runtime": "4.3.0",
          "System.Threading.Tasks": "4.3.0"
        }
      },
      "System.ObjectModel/4.3.0": {
        "dependencies": {
          "System.Collections": "4.3.0",
          "System.Diagnostics.Debug": "4.3.0",
          "System.Resources.ResourceManager": "4.3.0",
          "System.Runtime": "4.3.0",
          "System.Threading": "4.3.0"
        }
      },
      "System.Reflection/4.3.0": {
        "dependencies": {
          "Microsoft.NETCore.Platforms": "2.1.2",
          "Microsoft.NETCore.Targets": "1.1.0",
          "System.IO": "4.3.0",
          "System.Reflection.Primitives": "4.3.0",
          "System.Runtime": "4.3.0"
        }
      },
      "System.Reflection.Emit/4.3.0": {
        "dependencies": {
          "System.IO": "4.3.0",
          "System.Reflection": "4.3.0",
          "System.Reflection.Emit.ILGeneration": "4.3.0",
          "System.Reflection.Primitives": "4.3.0",
          "System.Runtime": "4.3.0"
        }
      },
      "System.Reflection.Emit.ILGeneration/4.3.0": {
        "dependencies": {
          "System.Reflection": "4.3.0",
          "System.Reflection.Primitives": "4.3.0",
          "System.Runtime": "4.3.0"
        }
      },
      "System.Reflection.Emit.Lightweight/4.3.0": {
        "dependencies": {
          "System.Reflection": "4.3.0",
          "System.Reflection.Emit.ILGeneration": "4.3.0",
          "System.Reflection.Primitives": "4.3.0",
          "System.Runtime": "4.3.0"
        }
      },
      "System.Reflection.Extensions/4.3.0": {
        "dependencies": {
          "Microsoft.NETCore.Platforms": "2.1.2",
          "Microsoft.NETCore.Targets": "1.1.0",
          "System.Reflection": "4.3.0",
          "System.Runtime": "4.3.0"
        }
      },
      "System.Reflection.Metadata/1.6.0": {},
      "System.Reflection.Primitives/4.3.0": {
        "dependencies": {
          "Microsoft.NETCore.Platforms": "2.1.2",
          "Microsoft.NETCore.Targets": "1.1.0",
          "System.Runtime": "4.3.0"
        }
      },
      "System.Reflection.TypeExtensions/4.3.0": {
        "dependencies": {
          "System.Reflection": "4.3.0",
          "System.Runtime": "4.3.0"
        }
      },
      "System.Resources.Extensions/4.6.0": {
        "runtime": {
          "lib/netstandard2.0/System.Resources.Extensions.dll": {
            "assemblyVersion": "4.0.0.0",
            "fileVersion": "4.700.19.46214"
          }
        }
      },
      "System.Resources.ResourceManager/4.3.0": {
        "dependencies": {
          "Microsoft.NETCore.Platforms": "2.1.2",
          "Microsoft.NETCore.Targets": "1.1.0",
          "System.Globalization": "4.3.0",
          "System.Reflection": "4.3.0",
          "System.Runtime": "4.3.0"
        }
      },
      "System.Resources.Writer/4.0.0": {
        "dependencies": {
          "System.Collections": "4.3.0",
          "System.IO": "4.3.0",
          "System.Resources.ResourceManager": "4.3.0",
          "System.Runtime": "4.3.0",
          "System.Runtime.Extensions": "4.3.0",
          "System.Text.Encoding": "4.3.0"
        }
      },
      "System.Runtime/4.3.0": {
        "dependencies": {
          "Microsoft.NETCore.Platforms": "2.1.2",
          "Microsoft.NETCore.Targets": "1.1.0"
        }
      },
      "System.Runtime.CompilerServices.Unsafe/4.6.0": {},
      "System.Runtime.Extensions/4.3.0": {
        "dependencies": {
          "Microsoft.NETCore.Platforms": "2.1.2",
          "Microsoft.NETCore.Targets": "1.1.0",
          "System.Runtime": "4.3.0"
        }
      },
      "System.Runtime.Handles/4.3.0": {
        "dependencies": {
          "Microsoft.NETCore.Platforms": "2.1.2",
          "Microsoft.NETCore.Targets": "1.1.0",
          "System.Runtime": "4.3.0"
        }
      },
      "System.Runtime.InteropServices/4.3.0": {
        "dependencies": {
          "Microsoft.NETCore.Platforms": "2.1.2",
          "Microsoft.NETCore.Targets": "1.1.0",
          "System.Reflection": "4.3.0",
          "System.Reflection.Primitives": "4.3.0",
          "System.Runtime": "4.3.0",
          "System.Runtime.Handles": "4.3.0"
        }
      },
      "System.Runtime.InteropServices.RuntimeInformation/4.3.0": {
        "dependencies": {
          "System.Reflection": "4.3.0",
          "System.Reflection.Extensions": "4.3.0",
          "System.Resources.ResourceManager": "4.3.0",
          "System.Runtime": "4.3.0",
          "System.Runtime.InteropServices": "4.3.0",
          "System.Threading": "4.3.0",
          "runtime.native.System": "4.3.0"
        }
      },
      "System.Runtime.Loader/4.0.0": {
        "dependencies": {
          "System.IO": "4.3.0",
          "System.Reflection": "4.3.0",
          "System.Runtime": "4.3.0"
        }
      },
      "System.Runtime.Numerics/4.3.0": {
        "dependencies": {
          "System.Globalization": "4.3.0",
          "System.Resources.ResourceManager": "4.3.0",
          "System.Runtime": "4.3.0",
          "System.Runtime.Extensions": "4.3.0"
        }
      },
      "System.Runtime.Serialization.Primitives/4.1.1": {
        "dependencies": {
          "System.Resources.ResourceManager": "4.3.0",
          "System.Runtime": "4.3.0"
        }
      },
      "System.Security.Claims/4.3.0": {
        "dependencies": {
          "System.Collections": "4.3.0",
          "System.Globalization": "4.3.0",
          "System.IO": "4.3.0",
          "System.Resources.ResourceManager": "4.3.0",
          "System.Runtime": "4.3.0",
          "System.Runtime.Extensions": "4.3.0",
          "System.Security.Principal": "4.3.0"
        }
      },
      "System.Security.Cryptography.Algorithms/4.3.0": {
        "dependencies": {
          "Microsoft.NETCore.Platforms": "2.1.2",
          "System.Collections": "4.3.0",
          "System.IO": "4.3.0",
          "System.Resources.ResourceManager": "4.3.0",
          "System.Runtime": "4.3.0",
          "System.Runtime.Extensions": "4.3.0",
          "System.Runtime.Handles": "4.3.0",
          "System.Runtime.InteropServices": "4.3.0",
          "System.Runtime.Numerics": "4.3.0",
          "System.Security.Cryptography.Encoding": "4.3.0",
          "System.Security.Cryptography.Primitives": "4.3.0",
          "System.Text.Encoding": "4.3.0",
          "runtime.native.System.Security.Cryptography.Apple": "4.3.0",
          "runtime.native.System.Security.Cryptography.OpenSsl": "4.3.2"
        }
      },
      "System.Security.Cryptography.Cng/4.3.0": {
        "dependencies": {
          "Microsoft.NETCore.Platforms": "2.1.2",
          "System.IO": "4.3.0",
          "System.Resources.ResourceManager": "4.3.0",
          "System.Runtime": "4.3.0",
          "System.Runtime.Extensions": "4.3.0",
          "System.Runtime.Handles": "4.3.0",
          "System.Runtime.InteropServices": "4.3.0",
          "System.Security.Cryptography.Algorithms": "4.3.0",
          "System.Security.Cryptography.Encoding": "4.3.0",
          "System.Security.Cryptography.Primitives": "4.3.0",
          "System.Text.Encoding": "4.3.0"
        }
      },
      "System.Security.Cryptography.Csp/4.3.0": {
        "dependencies": {
          "Microsoft.NETCore.Platforms": "2.1.2",
          "System.IO": "4.3.0",
          "System.Reflection": "4.3.0",
          "System.Resources.ResourceManager": "4.3.0",
          "System.Runtime": "4.3.0",
          "System.Runtime.Extensions": "4.3.0",
          "System.Runtime.Handles": "4.3.0",
          "System.Runtime.InteropServices": "4.3.0",
          "System.Security.Cryptography.Algorithms": "4.3.0",
          "System.Security.Cryptography.Encoding": "4.3.0",
          "System.Security.Cryptography.Primitives": "4.3.0",
          "System.Text.Encoding": "4.3.0",
          "System.Threading": "4.3.0"
        }
      },
      "System.Security.Cryptography.Encoding/4.3.0": {
        "dependencies": {
          "Microsoft.NETCore.Platforms": "2.1.2",
          "System.Collections": "4.3.0",
          "System.Collections.Concurrent": "4.3.0",
          "System.Linq": "4.3.0",
          "System.Resources.ResourceManager": "4.3.0",
          "System.Runtime": "4.3.0",
          "System.Runtime.Extensions": "4.3.0",
          "System.Runtime.Handles": "4.3.0",
          "System.Runtime.InteropServices": "4.3.0",
          "System.Security.Cryptography.Primitives": "4.3.0",
          "System.Text.Encoding": "4.3.0",
          "runtime.native.System.Security.Cryptography.OpenSsl": "4.3.2"
        }
      },
      "System.Security.Cryptography.OpenSsl/4.3.0": {
        "dependencies": {
          "System.Collections": "4.3.0",
          "System.IO": "4.3.0",
          "System.Resources.ResourceManager": "4.3.0",
          "System.Runtime": "4.3.0",
          "System.Runtime.Extensions": "4.3.0",
          "System.Runtime.Handles": "4.3.0",
          "System.Runtime.InteropServices": "4.3.0",
          "System.Runtime.Numerics": "4.3.0",
          "System.Security.Cryptography.Algorithms": "4.3.0",
          "System.Security.Cryptography.Encoding": "4.3.0",
          "System.Security.Cryptography.Primitives": "4.3.0",
          "System.Text.Encoding": "4.3.0",
          "runtime.native.System.Security.Cryptography.OpenSsl": "4.3.2"
        }
      },
      "System.Security.Cryptography.Primitives/4.3.0": {
        "dependencies": {
          "System.Diagnostics.Debug": "4.3.0",
          "System.Globalization": "4.3.0",
          "System.IO": "4.3.0",
          "System.Resources.ResourceManager": "4.3.0",
          "System.Runtime": "4.3.0",
          "System.Threading": "4.3.0",
          "System.Threading.Tasks": "4.3.0"
        }
      },
      "System.Security.Cryptography.X509Certificates/4.3.0": {
        "dependencies": {
          "Microsoft.NETCore.Platforms": "2.1.2",
          "System.Collections": "4.3.0",
          "System.Diagnostics.Debug": "4.3.0",
          "System.Globalization": "4.3.0",
          "System.Globalization.Calendars": "4.3.0",
          "System.IO": "4.3.0",
          "System.IO.FileSystem": "4.3.0",
          "System.IO.FileSystem.Primitives": "4.3.0",
          "System.Resources.ResourceManager": "4.3.0",
          "System.Runtime": "4.3.0",
          "System.Runtime.Extensions": "4.3.0",
          "System.Runtime.Handles": "4.3.0",
          "System.Runtime.InteropServices": "4.3.0",
          "System.Runtime.Numerics": "4.3.0",
          "System.Security.Cryptography.Algorithms": "4.3.0",
          "System.Security.Cryptography.Cng": "4.3.0",
          "System.Security.Cryptography.Csp": "4.3.0",
          "System.Security.Cryptography.Encoding": "4.3.0",
          "System.Security.Cryptography.OpenSsl": "4.3.0",
          "System.Security.Cryptography.Primitives": "4.3.0",
          "System.Text.Encoding": "4.3.0",
          "System.Threading": "4.3.0",
          "runtime.native.System": "4.3.0",
          "runtime.native.System.Net.Http": "4.3.0",
          "runtime.native.System.Security.Cryptography.OpenSsl": "4.3.2"
        }
      },
      "System.Security.Principal/4.3.0": {
        "dependencies": {
          "System.Runtime": "4.3.0"
        }
      },
      "System.Security.Principal.Windows/4.3.0": {
        "dependencies": {
          "Microsoft.NETCore.Platforms": "2.1.2",
          "Microsoft.Win32.Primitives": "4.3.0",
          "System.Collections": "4.3.0",
          "System.Diagnostics.Debug": "4.3.0",
          "System.Reflection": "4.3.0",
          "System.Resources.ResourceManager": "4.3.0",
          "System.Runtime": "4.3.0",
          "System.Runtime.Extensions": "4.3.0",
          "System.Runtime.Handles": "4.3.0",
          "System.Runtime.InteropServices": "4.3.0",
          "System.Security.Claims": "4.3.0",
          "System.Security.Principal": "4.3.0",
          "System.Text.Encoding": "4.3.0",
          "System.Threading": "4.3.0"
        }
      },
      "System.Text.Encoding/4.3.0": {
        "dependencies": {
          "Microsoft.NETCore.Platforms": "2.1.2",
          "Microsoft.NETCore.Targets": "1.1.0",
          "System.Runtime": "4.3.0"
        }
      },
      "System.Text.Encoding.CodePages/4.5.1": {
        "dependencies": {
          "Microsoft.NETCore.Platforms": "2.1.2",
          "System.Runtime.CompilerServices.Unsafe": "4.6.0"
        }
      },
      "System.Text.Encoding.Extensions/4.3.0": {
        "dependencies": {
          "Microsoft.NETCore.Platforms": "2.1.2",
          "Microsoft.NETCore.Targets": "1.1.0",
          "System.Runtime": "4.3.0",
          "System.Text.Encoding": "4.3.0"
        }
      },
      "System.Text.RegularExpressions/4.3.0": {
        "dependencies": {
          "System.Runtime": "4.3.0"
        }
      },
      "System.Threading/4.3.0": {
        "dependencies": {
          "System.Runtime": "4.3.0",
          "System.Threading.Tasks": "4.3.0"
        }
      },
      "System.Threading.Tasks/4.3.0": {
        "dependencies": {
          "Microsoft.NETCore.Platforms": "2.1.2",
          "Microsoft.NETCore.Targets": "1.1.0",
          "System.Runtime": "4.3.0"
        }
      },
      "System.Threading.Tasks.Dataflow/4.9.0": {},
      "System.Threading.Tasks.Extensions/4.5.3": {},
      "System.Threading.Thread/4.0.0": {
        "dependencies": {
          "System.Runtime": "4.3.0"
        }
      },
      "System.Threading.Timer/4.3.0": {
        "dependencies": {
          "Microsoft.NETCore.Platforms": "2.1.2",
          "Microsoft.NETCore.Targets": "1.1.0",
          "System.Runtime": "4.3.0"
        }
      },
      "System.Xml.ReaderWriter/4.3.0": {
        "dependencies": {
          "System.Collections": "4.3.0",
          "System.Diagnostics.Debug": "4.3.0",
          "System.Globalization": "4.3.0",
          "System.IO": "4.3.0",
          "System.IO.FileSystem": "4.3.0",
          "System.IO.FileSystem.Primitives": "4.3.0",
          "System.Resources.ResourceManager": "4.3.0",
          "System.Runtime": "4.3.0",
          "System.Runtime.Extensions": "4.3.0",
          "System.Runtime.InteropServices": "4.3.0",
          "System.Text.Encoding": "4.3.0",
          "System.Text.Encoding.Extensions": "4.3.0",
          "System.Text.RegularExpressions": "4.3.0",
          "System.Threading.Tasks": "4.3.0",
          "System.Threading.Tasks.Extensions": "4.5.3"
        }
      },
      "System.Xml.XDocument/4.3.0": {
        "dependencies": {
          "System.Collections": "4.3.0",
          "System.Diagnostics.Debug": "4.3.0",
          "System.Diagnostics.Tools": "4.3.0",
          "System.Globalization": "4.3.0",
          "System.IO": "4.3.0",
          "System.Reflection": "4.3.0",
          "System.Resources.ResourceManager": "4.3.0",
          "System.Runtime": "4.3.0",
          "System.Runtime.Extensions": "4.3.0",
          "System.Text.Encoding": "4.3.0",
          "System.Threading": "4.3.0",
          "System.Xml.ReaderWriter": "4.3.0"
        }
      },
      "RobinBird.Logging.Runtime/1.0.0": {
        "dependencies": {
          "JetBrains.Annotations": "2019.1.3"
        },
        "runtime": {
          "RobinBird.Logging.Runtime.dll": {}
        }
      },
      "RobinBird.Utilities.Runtime/1.0.0": {
        "dependencies": {
          "JetBrains.Annotations": "2019.1.3",
          "RobinBird.Logging.Runtime": "1.0.0"
        },
        "runtime": {
          "RobinBird.Utilities.Runtime.dll": {}
        }
      },
      "Shygen.Runtime/1.0.0": {
        "dependencies": {
          "Newtonsoft.Json": "12.0.3",
          "RobinBird.Utilities.Runtime": "1.0.0"
        },
        "runtime": {
          "Shygen.Runtime.dll": {}
        }
      }
    }
  },
  "libraries": {
    "RoslynSyntaxWalker/1.0.0": {
      "type": "project",
      "serviceable": false,
      "sha512": ""
    },
    "Humanizer.Core/2.2.0": {
      "type": "package",
      "serviceable": true,
      "sha512": "sha512-rsYXB7+iUPP8AHgQ8JP2UZI2xK2KhjcdGr9E6zX3CsZaTLCaw8M35vaAJRo1rfxeaZEVMuXeaquLVCkZ7JcZ5Q==",
      "path": "humanizer.core/2.2.0",
      "hashPath": "humanizer.core.2.2.0.nupkg.sha512"
    },
    "JetBrains.Annotations/2019.1.3": {
      "type": "package",
      "serviceable": true,
      "sha512": "sha512-E0x48BwZJKoNMNCekWGKsV4saQS89lf58ydT2szseV44CMYIbaHXjc7+305WLw6up3ibZN9yH6QdGSZo5tQhLg==",
      "path": "jetbrains.annotations/2019.1.3",
      "hashPath": "jetbrains.annotations.2019.1.3.nupkg.sha512"
    },
    "Microsoft.Build/16.5.0": {
      "type": "package",
      "serviceable": true,
      "sha512": "sha512-617wsdkrRXuBGv0151zLF2ydeAlTIDUMiUFvkNbOfqIuQVvs16zvs/dXylOLUiHGeCCzQTbHhJW4p5I2sb2ZQw==",
      "path": "microsoft.build/16.5.0",
      "hashPath": "microsoft.build.16.5.0.nupkg.sha512"
    },
    "Microsoft.Build.Framework/16.5.0": {
      "type": "package",
      "serviceable": true,
      "sha512": "sha512-K0hfdWy+0p8DJXxzpNc4T5zHm4hf9QONAvyzvw3utKExmxRBShtV/+uHVYTblZWk+rIHNEHeglyXMmqfSshdFA==",
      "path": "microsoft.build.framework/16.5.0",
      "hashPath": "microsoft.build.framework.16.5.0.nupkg.sha512"
    },
    "Microsoft.Build.Tasks.Core/16.5.0": {
      "type": "package",
      "serviceable": true,
      "sha512": "sha512-ZD+zrvBB+xYcFJZv4lOdLPoab/dtb9TkQxR3ZWN9NauiHZcxVsawKFqMNO+lZyt+4jS6fib3dkpB7T3beds81g==",
      "path": "microsoft.build.tasks.core/16.5.0",
      "hashPath": "microsoft.build.tasks.core.16.5.0.nupkg.sha512"
    },
    "Microsoft.Build.Utilities.Core/16.5.0": {
      "type": "package",
      "serviceable": true,
      "sha512": "sha512-qNUZa97jvJQ2Y7bpljQslxszVEAm+8xZuni59oJPVMaZ1q3n8YnhJwoROnmYBGm1Qyhbq3d6BsO2+MyHpfCHUQ==",
      "path": "microsoft.build.utilities.core/16.5.0",
      "hashPath": "microsoft.build.utilities.core.16.5.0.nupkg.sha512"
    },
    "Microsoft.CodeAnalysis.Analyzers/3.0.0-beta2.20059.3": {
      "type": "package",
      "serviceable": true,
      "sha512": "sha512-Ve2kXanMNVZp1cIoKbflh3RcQgOYLC4UZ23YIMkOnkA6hQjpXsg9NnXbziR2m4i6+WGSz9Wbxp+Tj7XdNRiITw==",
      "path": "microsoft.codeanalysis.analyzers/3.0.0-beta2.20059.3",
      "hashPath": "microsoft.codeanalysis.analyzers.3.0.0-beta2.20059.3.nupkg.sha512"
    },
    "Microsoft.CodeAnalysis.AnalyzerUtilities/3.0.0": {
      "type": "package",
      "serviceable": true,
      "sha512": "sha512-z8rVA1LC8kQv6ZFOSWn5TZhHx7lwdGF/cMcjTXi0h1itV10LEtC5Lm2yZCw0Uz2uyKWXYE0TsBfo+0xQqKHV2Q==",
      "path": "microsoft.codeanalysis.analyzerutilities/3.0.0",
      "hashPath": "microsoft.codeanalysis.analyzerutilities.3.0.0.nupkg.sha512"
    },
    "Microsoft.CodeAnalysis.Common/3.5.0": {
      "type": "package",
      "serviceable": true,
      "sha512": "sha512-1CjUHyDxhlwDfUSTOwqbNMZ4rk/Pqs33BupWmun8S/DUOou9mDe+MjapK06WjvuhIEyEr3fzyk0bOIwu0n1RYg==",
      "path": "microsoft.codeanalysis.common/3.5.0",
      "hashPath": "microsoft.codeanalysis.common.3.5.0.nupkg.sha512"
    },
    "Microsoft.CodeAnalysis.CSharp/3.5.0": {
      "type": "package",
      "serviceable": true,
      "sha512": "sha512-WSMCz5tAtnmEzgmE20J1tjX7chU9HYDfz8AHmWn4Ek+6PPvPZSoo0GDo4Pbnu1FAf4MnNDN6lMd4nqNPuI9V2A==",
      "path": "microsoft.codeanalysis.csharp/3.5.0",
      "hashPath": "microsoft.codeanalysis.csharp.3.5.0.nupkg.sha512"
    },
    "Microsoft.CodeAnalysis.CSharp.Features/3.5.0": {
      "type": "package",
      "serviceable": true,
      "sha512": "sha512-aWS5CcO9aT7iDfXyB6sDRUg4U4c7Zh9ZZa3+fyVrrwR2GQ/56K2eqP5isMyCu5HFiXFeFmnmpp1IZAEMGhzTxg==",
      "path": "microsoft.codeanalysis.csharp.features/3.5.0",
      "hashPath": "microsoft.codeanalysis.csharp.features.3.5.0.nupkg.sha512"
    },
    "Microsoft.CodeAnalysis.CSharp.Workspaces/3.5.0": {
      "type": "package",
      "serviceable": true,
      "sha512": "sha512-8awQyftZM+954b5e5jiI6SEjxErkJgDcaoyeQYWmCtu4Nn1w2IYg6CxyC3Kv7GFvBCzU7ex4aK0+Dav9okPRiw==",
      "path": "microsoft.codeanalysis.csharp.workspaces/3.5.0",
      "hashPath": "microsoft.codeanalysis.csharp.workspaces.3.5.0.nupkg.sha512"
    },
    "Microsoft.CodeAnalysis.Features/3.5.0": {
      "type": "package",
      "serviceable": true,
      "sha512": "sha512-KmS42Ua/IN0JrL8Qa5Zno5X/NuVsXt7ecz7pZl+Kh9w5IJ7M4ic7MrpCedvPiqPtKl+IBqK2G9f8Bdyi2D6/xg==",
      "path": "microsoft.codeanalysis.features/3.5.0",
      "hashPath": "microsoft.codeanalysis.features.3.5.0.nupkg.sha512"
    },
    "Microsoft.CodeAnalysis.Workspaces.Common/3.5.0": {
      "type": "package",
      "serviceable": true,
      "sha512": "sha512-MZLc5yxsHkkHxQ72KFhz9KEZaD0zhLVcZEQ/c+MSnbsLZnxztnOleGhhPCSWenRu2WkbIncrE2cEHcKdJKs+NA==",
      "path": "microsoft.codeanalysis.workspaces.common/3.5.0",
      "hashPath": "microsoft.codeanalysis.workspaces.common.3.5.0.nupkg.sha512"
    },
    "Microsoft.CodeAnalysis.Workspaces.MSBuild/3.5.0": {
      "type": "package",
      "serviceable": true,
      "sha512": "sha512-cJ8uNCxA7LRVUe8lWCSLD6ggS05/kaztXQg+8MZpZ77Cez70UOrXSUYPj/fl+MmB2RrycE0G3YTdxdkrhH6s1g==",
      "path": "microsoft.codeanalysis.workspaces.msbuild/3.5.0",
      "hashPath": "microsoft.codeanalysis.workspaces.msbuild.3.5.0.nupkg.sha512"
    },
    "Microsoft.DiaSymReader/1.3.0": {
      "type": "package",
      "serviceable": true,
      "sha512": "sha512-/fn1Tfo7j7k/slViPlM8azJuxQmri7FZ8dQ+gTeLbI29leN/1VK0U/BFcRdJNctsRCUgyKJ2q+I0Tjq07Rc1/Q==",
      "path": "microsoft.diasymreader/1.3.0",
      "hashPath": "microsoft.diasymreader.1.3.0.nupkg.sha512"
    },
    "Microsoft.NETCore.Platforms/2.1.2": {
      "type": "package",
      "serviceable": true,
      "sha512": "sha512-mOJy3M0UN+LUG21dLGMxaWZEP6xYpQEpLuvuEQBaownaX4YuhH6NmNUlN9si+vNkAS6dwJ//N1O4DmLf2CikVg==",
      "path": "microsoft.netcore.platforms/2.1.2",
      "hashPath": "microsoft.netcore.platforms.2.1.2.nupkg.sha512"
    },
    "Microsoft.NETCore.Targets/1.1.0": {
      "type": "package",
      "serviceable": true,
      "sha512": "sha512-aOZA3BWfz9RXjpzt0sRJJMjAscAUm3Hoa4UWAfceV9UTYxgwZ1lZt5nO2myFf+/jetYQo4uTP7zS8sJY67BBxg==",
      "path": "microsoft.netcore.targets/1.1.0",
      "hashPath": "microsoft.netcore.targets.1.1.0.nupkg.sha512"
    },
    "Microsoft.Win32.Primitives/4.3.0": {
      "type": "package",
      "serviceable": true,
      "sha512": "sha512-9ZQKCWxH7Ijp9BfahvL2Zyf1cJIk8XYLF6Yjzr2yi0b2cOut/HQ31qf1ThHAgCc3WiZMdnWcfJCgN82/0UunxA==",
      "path": "microsoft.win32.primitives/4.3.0",
      "hashPath": "microsoft.win32.primitives.4.3.0.nupkg.sha512"
    },
    "Microsoft.Win32.Registry/4.3.0": {
      "type": "package",
      "serviceable": true,
      "sha512": "sha512-Lw1/VwLH1yxz6SfFEjVRCN0pnflLEsWgnV4qsdJ512/HhTwnKXUG+zDQ4yTO3K/EJQemGoNaBHX5InISNKTzUQ==",
      "path": "microsoft.win32.registry/4.3.0",
      "hashPath": "microsoft.win32.registry.4.3.0.nupkg.sha512"
    },
    "NETStandard.Library/1.6.1": {
      "type": "package",
      "serviceable": true,
      "sha512": "sha512-WcSp3+vP+yHNgS8EV5J7pZ9IRpeDuARBPN28by8zqff1wJQXm26PVU8L3/fYLBJVU7BtDyqNVWq2KlCVvSSR4A==",
      "path": "netstandard.library/1.6.1",
      "hashPath": "netstandard.library.1.6.1.nupkg.sha512"
    },
    "Newtonsoft.Json/12.0.3": {
      "type": "package",
      "serviceable": true,
      "sha512": "sha512-6mgjfnRB4jKMlzHSl+VD+oUc1IebOZabkbyWj2RiTgWwYPPuaK1H97G1sHqGwPlS5npiF5Q0OrxN1wni2n5QWg==",
      "path": "newtonsoft.json/12.0.3",
      "hashPath": "newtonsoft.json.12.0.3.nupkg.sha512"
    },
    "runtime.debian.8-x64.runtime.native.System.Security.Cryptography.OpenSsl/4.3.2": {
      "type": "package",
      "serviceable": true,
      "sha512": "sha512-7VSGO0URRKoMEAq0Sc9cRz8mb6zbyx/BZDEWhgPdzzpmFhkam3fJ1DAGWFXBI4nGlma+uPKpfuMQP5LXRnOH5g==",
      "path": "runtime.debian.8-x64.runtime.native.system.security.cryptography.openssl/4.3.2",
      "hashPath": "runtime.debian.8-x64.runtime.native.system.security.cryptography.openssl.4.3.2.nupkg.sha512"
    },
    "runtime.fedora.23-x64.runtime.native.System.Security.Cryptography.OpenSsl/4.3.2": {
      "type": "package",
      "serviceable": true,
      "sha512": "sha512-0oAaTAm6e2oVH+/Zttt0cuhGaePQYKII1dY8iaqP7CvOpVKgLybKRFvQjXR2LtxXOXTVPNv14j0ot8uV+HrUmw==",
      "path": "runtime.fedora.23-x64.runtime.native.system.security.cryptography.openssl/4.3.2",
      "hashPath": "runtime.fedora.23-x64.runtime.native.system.security.cryptography.openssl.4.3.2.nupkg.sha512"
    },
    "runtime.fedora.24-x64.runtime.native.System.Security.Cryptography.OpenSsl/4.3.2": {
      "type": "package",
      "serviceable": true,
      "sha512": "sha512-G24ibsCNi5Kbz0oXWynBoRgtGvsw5ZSVEWjv13/KiCAM8C6wz9zzcCniMeQFIkJ2tasjo2kXlvlBZhplL51kGg==",
      "path": "runtime.fedora.24-x64.runtime.native.system.security.cryptography.openssl/4.3.2",
      "hashPath": "runtime.fedora.24-x64.runtime.native.system.security.cryptography.openssl.4.3.2.nupkg.sha512"
    },
    "runtime.native.System/4.3.0": {
      "type": "package",
      "serviceable": true,
      "sha512": "sha512-c/qWt2LieNZIj1jGnVNsE2Kl23Ya2aSTBuXMD6V7k9KWr6l16Tqdwq+hJScEpWER9753NWC8h96PaVNY5Ld7Jw==",
      "path": "runtime.native.system/4.3.0",
      "hashPath": "runtime.native.system.4.3.0.nupkg.sha512"
    },
    "runtime.native.System.IO.Compression/4.3.0": {
      "type": "package",
      "serviceable": true,
      "sha512": "sha512-INBPonS5QPEgn7naufQFXJEp3zX6L4bwHgJ/ZH78aBTpeNfQMtf7C6VrAFhlq2xxWBveIOWyFzQjJ8XzHMhdOQ==",
      "path": "runtime.native.system.io.compression/4.3.0",
      "hashPath": "runtime.native.system.io.compression.4.3.0.nupkg.sha512"
    },
    "runtime.native.System.Net.Http/4.3.0": {
      "type": "package",
      "serviceable": true,
      "sha512": "sha512-guqHgQOK2eUgtJae2VKjNawBn1xjC0hfOt5wASHa60XHbIdCsQlqtvMsFG+3hy7yp88V+gi9fZCjubuDkeakcQ==",
      "path": "runtime.native.system.net.http/4.3.0",
      "hashPath": "runtime.native.system.net.http.4.3.0.nupkg.sha512"
    },
    "runtime.native.System.Security.Cryptography.Apple/4.3.0": {
      "type": "package",
      "serviceable": true,
      "sha512": "sha512-DloMk88juo0OuOWr56QG7MNchmafTLYWvABy36izkrLI5VledI0rq28KGs1i9wbpeT9NPQrx/wTf8U2vazqQ3Q==",
      "path": "runtime.native.system.security.cryptography.apple/4.3.0",
      "hashPath": "runtime.native.system.security.cryptography.apple.4.3.0.nupkg.sha512"
    },
    "runtime.native.System.Security.Cryptography.OpenSsl/4.3.2": {
      "type": "package",
      "serviceable": true,
      "sha512": "sha512-QR1OwtwehHxSeQvZKXe+iSd+d3XZNkEcuWMFYa2i0aG1l+lR739HPicKMlTbJst3spmeekDVBUS7SeS26s4U/g==",
      "path": "runtime.native.system.security.cryptography.openssl/4.3.2",
      "hashPath": "runtime.native.system.security.cryptography.openssl.4.3.2.nupkg.sha512"
    },
    "runtime.opensuse.13.2-x64.runtime.native.System.Security.Cryptography.OpenSsl/4.3.2": {
      "type": "package",
      "serviceable": true,
      "sha512": "sha512-I+GNKGg2xCHueRd1m9PzeEW7WLbNNLznmTuEi8/vZX71HudUbx1UTwlGkiwMri7JLl8hGaIAWnA/GONhu+LOyQ==",
      "path": "runtime.opensuse.13.2-x64.runtime.native.system.security.cryptography.openssl/4.3.2",
      "hashPath": "runtime.opensuse.13.2-x64.runtime.native.system.security.cryptography.openssl.4.3.2.nupkg.sha512"
    },
    "runtime.opensuse.42.1-x64.runtime.native.System.Security.Cryptography.OpenSsl/4.3.2": {
      "type": "package",
      "serviceable": true,
      "sha512": "sha512-1Z3TAq1ytS1IBRtPXJvEUZdVsfWfeNEhBkbiOCGEl9wwAfsjP2lz3ZFDx5tq8p60/EqbS0HItG5piHuB71RjoA==",
      "path": "runtime.opensuse.42.1-x64.runtime.native.system.security.cryptography.openssl/4.3.2",
      "hashPath": "runtime.opensuse.42.1-x64.runtime.native.system.security.cryptography.openssl.4.3.2.nupkg.sha512"
    },
    "runtime.osx.10.10-x64.runtime.native.System.Security.Cryptography.Apple/4.3.0": {
      "type": "package",
      "serviceable": true,
      "sha512": "sha512-kVXCuMTrTlxq4XOOMAysuNwsXWpYeboGddNGpIgNSZmv1b6r/s/DPk0fYMB7Q5Qo4bY68o48jt4T4y5BVecbCQ==",
      "path": "runtime.osx.10.10-x64.runtime.native.system.security.cryptography.apple/4.3.0",
      "hashPath": "runtime.osx.10.10-x64.runtime.native.system.security.cryptography.apple.4.3.0.nupkg.sha512"
    },
    "runtime.osx.10.10-x64.runtime.native.System.Security.Cryptography.OpenSsl/4.3.2": {
      "type": "package",
      "serviceable": true,
      "sha512": "sha512-6mU/cVmmHtQiDXhnzUImxIcDL48GbTk+TsptXyJA+MIOG9LRjPoAQC/qBFB7X+UNyK86bmvGwC8t+M66wsYC8w==",
      "path": "runtime.osx.10.10-x64.runtime.native.system.security.cryptography.openssl/4.3.2",
      "hashPath": "runtime.osx.10.10-x64.runtime.native.system.security.cryptography.openssl.4.3.2.nupkg.sha512"
    },
    "runtime.rhel.7-x64.runtime.native.System.Security.Cryptography.OpenSsl/4.3.2": {
      "type": "package",
      "serviceable": true,
      "sha512": "sha512-vjwG0GGcTW/PPg6KVud8F9GLWYuAV1rrw1BKAqY0oh4jcUqg15oYF1+qkGR2x2ZHM4DQnWKQ7cJgYbfncz/lYg==",
      "path": "runtime.rhel.7-x64.runtime.native.system.security.cryptography.openssl/4.3.2",
      "hashPath": "runtime.rhel.7-x64.runtime.native.system.security.cryptography.openssl.4.3.2.nupkg.sha512"
    },
    "runtime.ubuntu.14.04-x64.runtime.native.System.Security.Cryptography.OpenSsl/4.3.2": {
      "type": "package",
      "serviceable": true,
      "sha512": "sha512-7KMFpTkHC/zoExs+PwP8jDCWcrK9H6L7soowT80CUx3e+nxP/AFnq0AQAW5W76z2WYbLAYCRyPfwYFG6zkvQRw==",
      "path": "runtime.ubuntu.14.04-x64.runtime.native.system.security.cryptography.openssl/4.3.2",
      "hashPath": "runtime.ubuntu.14.04-x64.runtime.native.system.security.cryptography.openssl.4.3.2.nupkg.sha512"
    },
    "runtime.ubuntu.16.04-x64.runtime.native.System.Security.Cryptography.OpenSsl/4.3.2": {
      "type": "package",
      "serviceable": true,
      "sha512": "sha512-xrlmRCnKZJLHxyyLIqkZjNXqgxnKdZxfItrPkjI+6pkRo5lHX8YvSZlWrSI5AVwLMi4HbNWP7064hcAWeZKp5w==",
      "path": "runtime.ubuntu.16.04-x64.runtime.native.system.security.cryptography.openssl/4.3.2",
      "hashPath": "runtime.ubuntu.16.04-x64.runtime.native.system.security.cryptography.openssl.4.3.2.nupkg.sha512"
    },
    "runtime.ubuntu.16.10-x64.runtime.native.System.Security.Cryptography.OpenSsl/4.3.2": {
      "type": "package",
      "serviceable": true,
      "sha512": "sha512-leXiwfiIkW7Gmn7cgnNcdtNAU70SjmKW3jxGj1iKHOvdn0zRWsgv/l2OJUO5zdGdiv2VRFnAsxxhDgMzofPdWg==",
      "path": "runtime.ubuntu.16.10-x64.runtime.native.system.security.cryptography.openssl/4.3.2",
      "hashPath": "runtime.ubuntu.16.10-x64.runtime.native.system.security.cryptography.openssl.4.3.2.nupkg.sha512"
    },
    "System.AppContext/4.3.0": {
      "type": "package",
      "serviceable": true,
      "sha512": "sha512-fKC+rmaLfeIzUhagxY17Q9siv/sPrjjKcfNg1Ic8IlQkZLipo8ljcaZQu4VtI4Jqbzjc2VTjzGLF6WmsRXAEgA==",
      "path": "system.appcontext/4.3.0",
      "hashPath": "system.appcontext.4.3.0.nupkg.sha512"
    },
    "System.Buffers/4.3.0": {
      "type": "package",
      "serviceable": true,
      "sha512": "sha512-ratu44uTIHgeBeI0dE8DWvmXVBSo4u7ozRZZHOMmK/JPpYyo0dAfgSiHlpiObMQ5lEtEyIXA40sKRYg5J6A8uQ==",
      "path": "system.buffers/4.3.0",
      "hashPath": "system.buffers.4.3.0.nupkg.sha512"
    },
    "System.CodeDom/4.4.0": {
      "type": "package",
      "serviceable": true,
      "sha512": "sha512-2sCCb7doXEwtYAbqzbF/8UAeDRMNmPaQbU2q50Psg1J9KzumyVVCgKQY8s53WIPTufNT0DpSe9QRvVjOzfDWBA==",
      "path": "system.codedom/4.4.0",
      "hashPath": "system.codedom.4.4.0.nupkg.sha512"
    },
    "System.Collections/4.3.0": {
      "type": "package",
      "serviceable": true,
      "sha512": "sha512-3Dcj85/TBdVpL5Zr+gEEBUuFe2icOnLalmEh9hfck1PTYbbyWuZgh4fmm2ysCLTrqLQw6t3TgTyJ+VLp+Qb+Lw==",
      "path": "system.collections/4.3.0",
      "hashPath": "system.collections.4.3.0.nupkg.sha512"
    },
    "System.Collections.Concurrent/4.3.0": {
      "type": "package",
      "serviceable": true,
      "sha512": "sha512-ztl69Xp0Y/UXCL+3v3tEU+lIy+bvjKNUmopn1wep/a291pVPK7dxBd6T7WnlQqRog+d1a/hSsgRsmFnIBKTPLQ==",
      "path": "system.collections.concurrent/4.3.0",
      "hashPath": "system.collections.concurrent.4.3.0.nupkg.sha512"
    },
    "System.Collections.Immutable/1.5.0": {
      "type": "package",
      "serviceable": true,
      "sha512": "sha512-EXKiDFsChZW0RjrZ4FYHu9aW6+P4MCgEDCklsVseRfhoO0F+dXeMSsMRAlVXIo06kGJ/zv+2w1a2uc2+kxxSaQ==",
      "path": "system.collections.immutable/1.5.0",
      "hashPath": "system.collections.immutable.1.5.0.nupkg.sha512"
    },
    "System.Composition/1.0.31": {
      "type": "package",
      "serviceable": true,
      "sha512": "sha512-I+D26qpYdoklyAVUdqwUBrEIckMNjAYnuPJy/h9dsQItpQwVREkDFs4b4tkBza0kT2Yk48Lcfsv2QQ9hWsh9Iw==",
      "path": "system.composition/1.0.31",
      "hashPath": "system.composition.1.0.31.nupkg.sha512"
    },
    "System.Composition.AttributedModel/1.0.31": {
      "type": "package",
      "serviceable": true,
      "sha512": "sha512-NHWhkM3ZkspmA0XJEsKdtTt1ViDYuojgSND3yHhTzwxepiwqZf+BCWuvCbjUt4fe0NxxQhUDGJ5km6sLjo9qnQ==",
      "path": "system.composition.attributedmodel/1.0.31",
      "hashPath": "system.composition.attributedmodel.1.0.31.nupkg.sha512"
    },
    "System.Composition.Convention/1.0.31": {
      "type": "package",
      "serviceable": true,
      "sha512": "sha512-GLjh2Ju71k6C0qxMMtl4efHa68NmWeIUYh4fkUI8xbjQrEBvFmRwMDFcylT8/PR9SQbeeL48IkFxU/+gd0nYEQ==",
      "path": "system.composition.convention/1.0.31",
      "hashPath": "system.composition.convention.1.0.31.nupkg.sha512"
    },
    "System.Composition.Hosting/1.0.31": {
      "type": "package",
      "serviceable": true,
      "sha512": "sha512-fN1bT4RX4vUqjbgoyuJFVUizAl2mYF5VAb+bVIxIYZSSc0BdnX+yGAxcavxJuDDCQ1K+/mdpgyEFc8e9ikjvrg==",
      "path": "system.composition.hosting/1.0.31",
      "hashPath": "system.composition.hosting.1.0.31.nupkg.sha512"
    },
    "System.Composition.Runtime/1.0.31": {
      "type": "package",
      "serviceable": true,
      "sha512": "sha512-0LEJN+2NVM89CE4SekDrrk5tHV5LeATltkp+9WNYrR+Huiyt0vaCqHbbHtVAjPyeLWIc8dOz/3kthRBj32wGQg==",
      "path": "system.composition.runtime/1.0.31",
      "hashPath": "system.composition.runtime.1.0.31.nupkg.sha512"
    },
    "System.Composition.TypedParts/1.0.31": {
      "type": "package",
      "serviceable": true,
      "sha512": "sha512-0Zae/FtzeFgDBBuILeIbC/T9HMYbW4olAmi8XqqAGosSOWvXfiQLfARZEhiGd0LVXaYgXr0NhxiU1LldRP1fpQ==",
      "path": "system.composition.typedparts/1.0.31",
      "hashPath": "system.composition.typedparts.1.0.31.nupkg.sha512"
    },
    "System.Console/4.3.0": {
      "type": "package",
      "serviceable": true,
      "sha512": "sha512-DHDrIxiqk1h03m6khKWV2X8p/uvN79rgSqpilL6uzpmSfxfU5ng8VcPtW4qsDsQDHiTv6IPV9TmD5M/vElPNLg==",
      "path": "system.console/4.3.0",
      "hashPath": "system.console.4.3.0.nupkg.sha512"
    },
    "System.Diagnostics.Debug/4.3.0": {
      "type": "package",
      "serviceable": true,
      "sha512": "sha512-ZUhUOdqmaG5Jk3Xdb8xi5kIyQYAA4PnTNlHx1mu9ZY3qv4ELIdKbnL/akbGaKi2RnNUWaZsAs31rvzFdewTj2g==",
      "path": "system.diagnostics.debug/4.3.0",
      "hashPath": "system.diagnostics.debug.4.3.0.nupkg.sha512"
    },
    "System.Diagnostics.DiagnosticSource/4.3.0": {
      "type": "package",
      "serviceable": true,
      "sha512": "sha512-tD6kosZnTAGdrEa0tZSuFyunMbt/5KYDnHdndJYGqZoNy00XVXyACd5d6KnE1YgYv3ne2CjtAfNXo/fwEhnKUA==",
      "path": "system.diagnostics.diagnosticsource/4.3.0",
      "hashPath": "system.diagnostics.diagnosticsource.4.3.0.nupkg.sha512"
    },
    "System.Diagnostics.Tools/4.3.0": {
      "type": "package",
      "serviceable": true,
      "sha512": "sha512-UUvkJfSYJMM6x527dJg2VyWPSRqIVB0Z7dbjHst1zmwTXz5CcXSYJFWRpuigfbO1Lf7yfZiIaEUesfnl/g5EyA==",
      "path": "system.diagnostics.tools/4.3.0",
      "hashPath": "system.diagnostics.tools.4.3.0.nupkg.sha512"
    },
    "System.Diagnostics.TraceSource/4.0.0": {
      "type": "package",
      "serviceable": true,
      "sha512": "sha512-6WVCczFZKXwpWpzd/iJkYnsmWTSFFiU24Xx/YdHXBcu+nFI/ehTgeqdJQFbtRPzbrO3KtRNjvkhtj4t5/WwWsA==",
      "path": "system.diagnostics.tracesource/4.0.0",
      "hashPath": "system.diagnostics.tracesource.4.0.0.nupkg.sha512"
    },
    "System.Diagnostics.Tracing/4.3.0": {
      "type": "package",
      "serviceable": true,
      "sha512": "sha512-rswfv0f/Cqkh78rA5S8eN8Neocz234+emGCtTF3lxPY96F+mmmUen6tbn0glN6PMvlKQb9bPAY5e9u7fgPTkKw==",
      "path": "system.diagnostics.tracing/4.3.0",
      "hashPath": "system.diagnostics.tracing.4.3.0.nupkg.sha512"
    },
    "System.Globalization/4.3.0": {
      "type": "package",
      "serviceable": true,
      "sha512": "sha512-kYdVd2f2PAdFGblzFswE4hkNANJBKRmsfa2X5LG2AcWE1c7/4t0pYae1L8vfZ5xvE2nK/R9JprtToA61OSHWIg==",
      "path": "system.globalization/4.3.0",
      "hashPath": "system.globalization.4.3.0.nupkg.sha512"
    },
    "System.Globalization.Calendars/4.3.0": {
      "type": "package",
      "serviceable": true,
      "sha512": "sha512-GUlBtdOWT4LTV3I+9/PJW+56AnnChTaOqqTLFtdmype/L500M2LIyXgmtd9X2P2VOkmJd5c67H5SaC2QcL1bFA==",
      "path": "system.globalization.calendars/4.3.0",
      "hashPath": "system.globalization.calendars.4.3.0.nupkg.sha512"
    },
    "System.Globalization.Extensions/4.3.0": {
      "type": "package",
      "serviceable": true,
      "sha512": "sha512-FhKmdR6MPG+pxow6wGtNAWdZh7noIOpdD5TwQ3CprzgIE1bBBoim0vbR1+AWsWjQmU7zXHgQo4TWSP6lCeiWcQ==",
      "path": "system.globalization.extensions/4.3.0",
      "hashPath": "system.globalization.extensions.4.3.0.nupkg.sha512"
    },
    "System.IO/4.3.0": {
      "type": "package",
      "serviceable": true,
      "sha512": "sha512-3qjaHvxQPDpSOYICjUoTsmoq5u6QJAFRUITgeT/4gqkF1bajbSmb1kwSxEA8AHlofqgcKJcM8udgieRNhaJ5Cg==",
      "path": "system.io/4.3.0",
      "hashPath": "system.io.4.3.0.nupkg.sha512"
    },
    "System.IO.Compression/4.3.0": {
      "type": "package",
      "serviceable": true,
      "sha512": "sha512-YHndyoiV90iu4iKG115ibkhrG+S3jBm8Ap9OwoUAzO5oPDAWcr0SFwQFm0HjM8WkEZWo0zvLTyLmbvTkW1bXgg==",
      "path": "system.io.compression/4.3.0",
      "hashPath": "system.io.compression.4.3.0.nupkg.sha512"
    },
    "System.IO.Compression.ZipFile/4.3.0": {
      "type": "package",
      "serviceable": true,
      "sha512": "sha512-G4HwjEsgIwy3JFBduZ9quBkAu+eUwjIdJleuNSgmUojbH6O3mlvEIme+GHx/cLlTAPcrnnL7GqvB9pTlWRfhOg==",
      "path": "system.io.compression.zipfile/4.3.0",
      "hashPath": "system.io.compression.zipfile.4.3.0.nupkg.sha512"
    },
    "System.IO.FileSystem/4.3.0": {
      "type": "package",
      "serviceable": true,
      "sha512": "sha512-3wEMARTnuio+ulnvi+hkRNROYwa1kylvYahhcLk4HSoVdl+xxTFVeVlYOfLwrDPImGls0mDqbMhrza8qnWPTdA==",
      "path": "system.io.filesystem/4.3.0",
      "hashPath": "system.io.filesystem.4.3.0.nupkg.sha512"
    },
    "System.IO.FileSystem.Primitives/4.3.0": {
      "type": "package",
      "serviceable": true,
      "sha512": "sha512-6QOb2XFLch7bEc4lIcJH49nJN2HV+OC3fHDgsLVsBVBk3Y4hFAnOBGzJ2lUu7CyDDFo9IBWkSsnbkT6IBwwiMw==",
      "path": "system.io.filesystem.primitives/4.3.0",
      "hashPath": "system.io.filesystem.primitives.4.3.0.nupkg.sha512"
    },
    "System.Linq/4.3.0": {
      "type": "package",
      "serviceable": true,
      "sha512": "sha512-5DbqIUpsDp0dFftytzuMmc0oeMdQwjcP/EWxsksIz/w1TcFRkZ3yKKz0PqiYFMmEwPSWw+qNVqD7PJ889JzHbw==",
      "path": "system.linq/4.3.0",
      "hashPath": "system.linq.4.3.0.nupkg.sha512"
    },
    "System.Linq.Expressions/4.3.0": {
      "type": "package",
      "serviceable": true,
      "sha512": "sha512-PGKkrd2khG4CnlyJwxwwaWWiSiWFNBGlgXvJpeO0xCXrZ89ODrQ6tjEWS/kOqZ8GwEOUATtKtzp1eRgmYNfclg==",
      "path": "system.linq.expressions/4.3.0",
      "hashPath": "system.linq.expressions.4.3.0.nupkg.sha512"
    },
    "System.Linq.Parallel/4.0.1": {
      "type": "package",
      "serviceable": true,
      "sha512": "sha512-J7XCa7n2cFn32uLbtceXfBFhgCk5M++50lylHKNbqTiJkw5y4Tglpi6amuJNPCvj9bLzNSI7rs1fi4joLMNRgg==",
      "path": "system.linq.parallel/4.0.1",
      "hashPath": "system.linq.parallel.4.0.1.nupkg.sha512"
    },
    "System.Memory/4.5.3": {
      "type": "package",
      "serviceable": true,
      "sha512": "sha512-3oDzvc/zzetpTKWMShs1AADwZjQ/36HnsufHRPcOjyRAAMLDlu2iD33MBI2opxnezcVUtXyqDXXjoFMOU9c7SA==",
      "path": "system.memory/4.5.3",
      "hashPath": "system.memory.4.5.3.nupkg.sha512"
    },
    "System.Net.Http/4.3.4": {
      "type": "package",
      "serviceable": true,
      "sha512": "sha512-aOa2d51SEbmM+H+Csw7yJOuNZoHkrP2XnAurye5HWYgGVVU54YZDvsLUYRv6h18X3sPnjNCANmN7ZhIPiqMcjA==",
      "path": "system.net.http/4.3.4",
      "hashPath": "system.net.http.4.3.4.nupkg.sha512"
    },
    "System.Net.Primitives/4.3.0": {
      "type": "package",
      "serviceable": true,
      "sha512": "sha512-qOu+hDwFwoZPbzPvwut2qATe3ygjeQBDQj91xlsaqGFQUI5i4ZnZb8yyQuLGpDGivEPIt8EJkd1BVzVoP31FXA==",
      "path": "system.net.primitives/4.3.0",
      "hashPath": "system.net.primitives.4.3.0.nupkg.sha512"
    },
    "System.Net.Sockets/4.3.0": {
      "type": "package",
      "serviceable": true,
      "sha512": "sha512-m6icV6TqQOAdgt5N/9I5KNpjom/5NFtkmGseEH+AK/hny8XrytLH3+b5M8zL/Ycg3fhIocFpUMyl/wpFnVRvdw==",
      "path": "system.net.sockets/4.3.0",
      "hashPath": "system.net.sockets.4.3.0.nupkg.sha512"
    },
    "System.ObjectModel/4.3.0": {
      "type": "package",
      "serviceable": true,
      "sha512": "sha512-bdX+80eKv9bN6K4N+d77OankKHGn6CH711a6fcOpMQu2Fckp/Ft4L/kW9WznHpyR0NRAvJutzOMHNNlBGvxQzQ==",
      "path": "system.objectmodel/4.3.0",
      "hashPath": "system.objectmodel.4.3.0.nupkg.sha512"
    },
    "System.Reflection/4.3.0": {
      "type": "package",
      "serviceable": true,
      "sha512": "sha512-KMiAFoW7MfJGa9nDFNcfu+FpEdiHpWgTcS2HdMpDvt9saK3y/G4GwprPyzqjFH9NTaGPQeWNHU+iDlDILj96aQ==",
      "path": "system.reflection/4.3.0",
      "hashPath": "system.reflection.4.3.0.nupkg.sha512"
    },
    "System.Reflection.Emit/4.3.0": {
      "type": "package",
      "serviceable": true,
      "sha512": "sha512-228FG0jLcIwTVJyz8CLFKueVqQK36ANazUManGaJHkO0icjiIypKW7YLWLIWahyIkdh5M7mV2dJepllLyA1SKg==",
      "path": "system.reflection.emit/4.3.0",
      "hashPath": "system.reflection.emit.4.3.0.nupkg.sha512"
    },
    "System.Reflection.Emit.ILGeneration/4.3.0": {
      "type": "package",
      "serviceable": true,
      "sha512": "sha512-59tBslAk9733NXLrUJrwNZEzbMAcu8k344OYo+wfSVygcgZ9lgBdGIzH/nrg3LYhXceynyvTc8t5/GD4Ri0/ng==",
      "path": "system.reflection.emit.ilgeneration/4.3.0",
      "hashPath": "system.reflection.emit.ilgeneration.4.3.0.nupkg.sha512"
    },
    "System.Reflection.Emit.Lightweight/4.3.0": {
      "type": "package",
      "serviceable": true,
      "sha512": "sha512-oadVHGSMsTmZsAF864QYN1t1QzZjIcuKU3l2S9cZOwDdDueNTrqq1yRj7koFfIGEnKpt6NjpL3rOzRhs4ryOgA==",
      "path": "system.reflection.emit.lightweight/4.3.0",
      "hashPath": "system.reflection.emit.lightweight.4.3.0.nupkg.sha512"
    },
    "System.Reflection.Extensions/4.3.0": {
      "type": "package",
      "serviceable": true,
      "sha512": "sha512-rJkrJD3kBI5B712aRu4DpSIiHRtr6QlfZSQsb0hYHrDCZORXCFjQfoipo2LaMUHoT9i1B7j7MnfaEKWDFmFQNQ==",
      "path": "system.reflection.extensions/4.3.0",
      "hashPath": "system.reflection.extensions.4.3.0.nupkg.sha512"
    },
    "System.Reflection.Metadata/1.6.0": {
      "type": "package",
      "serviceable": true,
      "sha512": "sha512-COC1aiAJjCoA5GBF+QKL2uLqEBew4JsCkQmoHKbN3TlOZKa2fKLz5CpiRQKDz0RsAOEGsVKqOD5bomsXq/4STQ==",
      "path": "system.reflection.metadata/1.6.0",
      "hashPath": "system.reflection.metadata.1.6.0.nupkg.sha512"
    },
    "System.Reflection.Primitives/4.3.0": {
      "type": "package",
      "serviceable": true,
      "sha512": "sha512-5RXItQz5As4xN2/YUDxdpsEkMhvw3e6aNveFXUn4Hl/udNTCNhnKp8lT9fnc3MhvGKh1baak5CovpuQUXHAlIA==",
      "path": "system.reflection.primitives/4.3.0",
      "hashPath": "system.reflection.primitives.4.3.0.nupkg.sha512"
    },
    "System.Reflection.TypeExtensions/4.3.0": {
      "type": "package",
      "serviceable": true,
      "sha512": "sha512-7u6ulLcZbyxB5Gq0nMkQttcdBTx57ibzw+4IOXEfR+sXYQoHvjW5LTLyNr8O22UIMrqYbchJQJnos4eooYzYJA==",
      "path": "system.reflection.typeextensions/4.3.0",
      "hashPath": "system.reflection.typeextensions.4.3.0.nupkg.sha512"
    },
    "System.Resources.Extensions/4.6.0": {
      "type": "package",
      "serviceable": true,
      "sha512": "sha512-6aVCk8oTFZNT3Tx1jjiPi6+aipiJ3qMZYttAREKTRJidP50YvNeOn4PXrqzfA5qC23fLReq2JYp+nJwzj62HGw==",
      "path": "system.resources.extensions/4.6.0",
      "hashPath": "system.resources.extensions.4.6.0.nupkg.sha512"
    },
    "System.Resources.ResourceManager/4.3.0": {
      "type": "package",
      "serviceable": true,
      "sha512": "sha512-/zrcPkkWdZmI4F92gL/TPumP98AVDu/Wxr3CSJGQQ+XN6wbRZcyfSKVoPo17ilb3iOr0cCRqJInGwNMolqhS8A==",
      "path": "system.resources.resourcemanager/4.3.0",
      "hashPath": "system.resources.resourcemanager.4.3.0.nupkg.sha512"
    },
    "System.Resources.Writer/4.0.0": {
      "type": "package",
      "serviceable": true,
      "sha512": "sha512-Hz+ZS81dVSNy93YyJhhL3GwzmMhfcQ8FbUooAt9MO4joIe0vPM4gclv0C82ko1tuN/Kw6CvZFLYkgk6n9xvEkg==",
      "path": "system.resources.writer/4.0.0",
      "hashPath": "system.resources.writer.4.0.0.nupkg.sha512"
    },
    "System.Runtime/4.3.0": {
      "type": "package",
      "serviceable": true,
      "sha512": "sha512-JufQi0vPQ0xGnAczR13AUFglDyVYt4Kqnz1AZaiKZ5+GICq0/1MH/mO/eAJHt/mHW1zjKBJd7kV26SrxddAhiw==",
      "path": "system.runtime/4.3.0",
      "hashPath": "system.runtime.4.3.0.nupkg.sha512"
    },
    "System.Runtime.CompilerServices.Unsafe/4.6.0": {
      "type": "package",
      "serviceable": true,
      "sha512": "sha512-HxozeSlipUK7dAroTYwIcGwKDeOVpQnJlpVaOkBz7CM4TsE5b/tKlQBZecTjh6FzcSbxndYaxxpsBMz+wMJeyw==",
      "path": "system.runtime.compilerservices.unsafe/4.6.0",
      "hashPath": "system.runtime.compilerservices.unsafe.4.6.0.nupkg.sha512"
    },
    "System.Runtime.Extensions/4.3.0": {
      "type": "package",
      "serviceable": true,
      "sha512": "sha512-guW0uK0fn5fcJJ1tJVXYd7/1h5F+pea1r7FLSOz/f8vPEqbR2ZAknuRDvTQ8PzAilDveOxNjSfr0CHfIQfFk8g==",
      "path": "system.runtime.extensions/4.3.0",
      "hashPath": "system.runtime.extensions.4.3.0.nupkg.sha512"
    },
    "System.Runtime.Handles/4.3.0": {
      "type": "package",
      "serviceable": true,
      "sha512": "sha512-OKiSUN7DmTWeYb3l51A7EYaeNMnvxwE249YtZz7yooT4gOZhmTjIn48KgSsw2k2lYdLgTKNJw/ZIfSElwDRVgg==",
      "path": "system.runtime.handles/4.3.0",
      "hashPath": "system.runtime.handles.4.3.0.nupkg.sha512"
    },
    "System.Runtime.InteropServices/4.3.0": {
      "type": "package",
      "serviceable": true,
      "sha512": "sha512-uv1ynXqiMK8mp1GM3jDqPCFN66eJ5w5XNomaK2XD+TuCroNTLFGeZ+WCmBMcBDyTFKou3P6cR6J/QsaqDp7fGQ==",
      "path": "system.runtime.interopservices/4.3.0",
      "hashPath": "system.runtime.interopservices.4.3.0.nupkg.sha512"
    },
    "System.Runtime.InteropServices.RuntimeInformation/4.3.0": {
      "type": "package",
      "serviceable": true,
      "sha512": "sha512-cbz4YJMqRDR7oLeMRbdYv7mYzc++17lNhScCX0goO2XpGWdvAt60CGN+FHdePUEHCe/Jy9jUlvNAiNdM+7jsOw==",
      "path": "system.runtime.interopservices.runtimeinformation/4.3.0",
      "hashPath": "system.runtime.interopservices.runtimeinformation.4.3.0.nupkg.sha512"
    },
    "System.Runtime.Loader/4.0.0": {
      "type": "package",
      "serviceable": true,
      "sha512": "sha512-4UN78GOVU/mbDFcXkEWtetJT/sJ0yic2gGk1HSlSpWI0TDf421xnrZTDZnwNBapk1GQeYN7U1lTj/aQB1by6ow==",
      "path": "system.runtime.loader/4.0.0",
      "hashPath": "system.runtime.loader.4.0.0.nupkg.sha512"
    },
    "System.Runtime.Numerics/4.3.0": {
      "type": "package",
      "serviceable": true,
      "sha512": "sha512-yMH+MfdzHjy17l2KESnPiF2dwq7T+xLnSJar7slyimAkUh/gTrS9/UQOtv7xarskJ2/XDSNvfLGOBQPjL7PaHQ==",
      "path": "system.runtime.numerics/4.3.0",
      "hashPath": "system.runtime.numerics.4.3.0.nupkg.sha512"
    },
    "System.Runtime.Serialization.Primitives/4.1.1": {
      "type": "package",
      "serviceable": true,
      "sha512": "sha512-HZ6Du5QrTG8MNJbf4e4qMO3JRAkIboGT5Fk804uZtg3Gq516S7hAqTm2UZKUHa7/6HUGdVy3AqMQKbns06G/cg==",
      "path": "system.runtime.serialization.primitives/4.1.1",
      "hashPath": "system.runtime.serialization.primitives.4.1.1.nupkg.sha512"
    },
    "System.Security.Claims/4.3.0": {
      "type": "package",
      "serviceable": true,
      "sha512": "sha512-P/+BR/2lnc4PNDHt/TPBAWHVMLMRHsyYZbU1NphW4HIWzCggz8mJbTQQ3MKljFE7LS3WagmVFuBgoLcFzYXlkA==",
      "path": "system.security.claims/4.3.0",
      "hashPath": "system.security.claims.4.3.0.nupkg.sha512"
    },
    "System.Security.Cryptography.Algorithms/4.3.0": {
      "type": "package",
      "serviceable": true,
      "sha512": "sha512-W1kd2Y8mYSCgc3ULTAZ0hOP2dSdG5YauTb1089T0/kRcN2MpSAW1izOFROrJgxSlMn3ArsgHXagigyi+ibhevg==",
      "path": "system.security.cryptography.algorithms/4.3.0",
      "hashPath": "system.security.cryptography.algorithms.4.3.0.nupkg.sha512"
    },
    "System.Security.Cryptography.Cng/4.3.0": {
      "type": "package",
      "serviceable": true,
      "sha512": "sha512-03idZOqFlsKRL4W+LuCpJ6dBYDUWReug6lZjBa3uJWnk5sPCUXckocevTaUA8iT/MFSrY/2HXkOt753xQ/cf8g==",
      "path": "system.security.cryptography.cng/4.3.0",
      "hashPath": "system.security.cryptography.cng.4.3.0.nupkg.sha512"
    },
    "System.Security.Cryptography.Csp/4.3.0": {
      "type": "package",
      "serviceable": true,
      "sha512": "sha512-X4s/FCkEUnRGnwR3aSfVIkldBmtURMhmexALNTwpjklzxWU7yjMk7GHLKOZTNkgnWnE0q7+BCf9N2LVRWxewaA==",
      "path": "system.security.cryptography.csp/4.3.0",
      "hashPath": "system.security.cryptography.csp.4.3.0.nupkg.sha512"
    },
    "System.Security.Cryptography.Encoding/4.3.0": {
      "type": "package",
      "serviceable": true,
      "sha512": "sha512-1DEWjZZly9ae9C79vFwqaO5kaOlI5q+3/55ohmq/7dpDyDfc8lYe7YVxJUZ5MF/NtbkRjwFRo14yM4OEo9EmDw==",
      "path": "system.security.cryptography.encoding/4.3.0",
      "hashPath": "system.security.cryptography.encoding.4.3.0.nupkg.sha512"
    },
    "System.Security.Cryptography.OpenSsl/4.3.0": {
      "type": "package",
      "serviceable": true,
      "sha512": "sha512-vOYy7Jv9KsG3ld2hLt0GoERd82SZi4BelrbXLwI9yFBYX7kpbvUCWYo4eyevk47cuJXZ9ZLVAryANcc7iY71aA==",
      "path": "system.security.cryptography.openssl/4.3.0",
      "hashPath": "system.security.cryptography.openssl.4.3.0.nupkg.sha512"
    },
    "System.Security.Cryptography.Primitives/4.3.0": {
      "type": "package",
      "serviceable": true,
      "sha512": "sha512-7bDIyVFNL/xKeFHjhobUAQqSpJq9YTOpbEs6mR233Et01STBMXNAc/V+BM6dwYGc95gVh/Zf+iVXWzj3mE8DWg==",
      "path": "system.security.cryptography.primitives/4.3.0",
      "hashPath": "system.security.cryptography.primitives.4.3.0.nupkg.sha512"
    },
    "System.Security.Cryptography.X509Certificates/4.3.0": {
      "type": "package",
      "serviceable": true,
      "sha512": "sha512-t2Tmu6Y2NtJ2um0RtcuhP7ZdNNxXEgUm2JeoA/0NvlMjAhKCnM1NX07TDl3244mVp3QU6LPEhT3HTtH1uF7IYw==",
      "path": "system.security.cryptography.x509certificates/4.3.0",
      "hashPath": "system.security.cryptography.x509certificates.4.3.0.nupkg.sha512"
    },
    "System.Security.Principal/4.3.0": {
      "type": "package",
      "serviceable": true,
      "sha512": "sha512-I1tkfQlAoMM2URscUtpcRo/hX0jinXx6a/KUtEQoz3owaYwl3qwsO8cbzYVVnjxrzxjHo3nJC+62uolgeGIS9A==",
      "path": "system.security.principal/4.3.0",
      "hashPath": "system.security.principal.4.3.0.nupkg.sha512"
    },
    "System.Security.Principal.Windows/4.3.0": {
      "type": "package",
      "serviceable": true,
      "sha512": "sha512-HVL1rvqYtnRCxFsYag/2le/ZfKLK4yMw79+s6FmKXbSCNN0JeAhrYxnRAHFoWRa0dEojsDcbBSpH3l22QxAVyw==",
      "path": "system.security.principal.windows/4.3.0",
      "hashPath": "system.security.principal.windows.4.3.0.nupkg.sha512"
    },
    "System.Text.Encoding/4.3.0": {
      "type": "package",
      "serviceable": true,
      "sha512": "sha512-BiIg+KWaSDOITze6jGQynxg64naAPtqGHBwDrLaCtixsa5bKiR8dpPOHA7ge3C0JJQizJE+sfkz1wV+BAKAYZw==",
      "path": "system.text.encoding/4.3.0",
      "hashPath": "system.text.encoding.4.3.0.nupkg.sha512"
    },
    "System.Text.Encoding.CodePages/4.5.1": {
      "type": "package",
      "serviceable": true,
      "sha512": "sha512-4J2JQXbftjPMppIHJ7IC+VXQ9XfEagN92vZZNoG12i+zReYlim5dMoXFC1Zzg7tsnKDM7JPo5bYfFK4Jheq44w==",
      "path": "system.text.encoding.codepages/4.5.1",
      "hashPath": "system.text.encoding.codepages.4.5.1.nupkg.sha512"
    },
    "System.Text.Encoding.Extensions/4.3.0": {
      "type": "package",
      "serviceable": true,
      "sha512": "sha512-YVMK0Bt/A43RmwizJoZ22ei2nmrhobgeiYwFzC4YAN+nue8RF6djXDMog0UCn+brerQoYVyaS+ghy9P/MUVcmw==",
      "path": "system.text.encoding.extensions/4.3.0",
      "hashPath": "system.text.encoding.extensions.4.3.0.nupkg.sha512"
    },
    "System.Text.RegularExpressions/4.3.0": {
      "type": "package",
      "serviceable": true,
      "sha512": "sha512-RpT2DA+L660cBt1FssIE9CAGpLFdFPuheB7pLpKpn6ZXNby7jDERe8Ua/Ne2xGiwLVG2JOqziiaVCGDon5sKFA==",
      "path": "system.text.regularexpressions/4.3.0",
      "hashPath": "system.text.regularexpressions.4.3.0.nupkg.sha512"
    },
    "System.Threading/4.3.0": {
      "type": "package",
      "serviceable": true,
      "sha512": "sha512-VkUS0kOBcUf3Wwm0TSbrevDDZ6BlM+b/HRiapRFWjM5O0NS0LviG0glKmFK+hhPDd1XFeSdU1GmlLhb2CoVpIw==",
      "path": "system.threading/4.3.0",
      "hashPath": "system.threading.4.3.0.nupkg.sha512"
    },
    "System.Threading.Tasks/4.3.0": {
      "type": "package",
      "serviceable": true,
      "sha512": "sha512-LbSxKEdOUhVe8BezB/9uOGGppt+nZf6e1VFyw6v3DN6lqitm0OSn2uXMOdtP0M3W4iMcqcivm2J6UgqiwwnXiA==",
      "path": "system.threading.tasks/4.3.0",
      "hashPath": "system.threading.tasks.4.3.0.nupkg.sha512"
    },
    "System.Threading.Tasks.Dataflow/4.9.0": {
      "type": "package",
      "serviceable": true,
      "sha512": "sha512-dTS+3D/GtG2/Pvc3E5YzVvAa7aQJgLDlZDIzukMOJjYudVOQOUXEU68y6Zi3Nn/jqIeB5kOCwrGbQFAKHVzXEQ==",
      "path": "system.threading.tasks.dataflow/4.9.0",
      "hashPath": "system.threading.tasks.dataflow.4.9.0.nupkg.sha512"
    },
    "System.Threading.Tasks.Extensions/4.5.3": {
      "type": "package",
      "serviceable": true,
      "sha512": "sha512-+MvhNtcvIbqmhANyKu91jQnvIRVSTiaOiFNfKWwXGHG48YAb4I/TyH8spsySiPYla7gKal5ZnF3teJqZAximyQ==",
      "path": "system.threading.tasks.extensions/4.5.3",
      "hashPath": "system.threading.tasks.extensions.4.5.3.nupkg.sha512"
    },
    "System.Threading.Thread/4.0.0": {
      "type": "package",
      "serviceable": true,
      "sha512": "sha512-gIdJqDXlOr5W9zeqFErLw3dsOsiShSCYtF9SEHitACycmvNvY8odf9kiKvp6V7aibc8C4HzzNBkWXjyfn7plbQ==",
      "path": "system.threading.thread/4.0.0",
      "hashPath": "system.threading.thread.4.0.0.nupkg.sha512"
    },
    "System.Threading.Timer/4.3.0": {
      "type": "package",
      "serviceable": true,
      "sha512": "sha512-Z6YfyYTCg7lOZjJzBjONJTFKGN9/NIYKSxhU5GRd+DTwHSZyvWp1xuI5aR+dLg+ayyC5Xv57KiY4oJ0tMO89fQ==",
      "path": "system.threading.timer/4.3.0",
      "hashPath": "system.threading.timer.4.3.0.nupkg.sha512"
    },
    "System.Xml.ReaderWriter/4.3.0": {
      "type": "package",
      "serviceable": true,
      "sha512": "sha512-GrprA+Z0RUXaR4N7/eW71j1rgMnEnEVlgii49GZyAjTH7uliMnrOU3HNFBr6fEDBCJCIdlVNq9hHbaDR621XBA==",
      "path": "system.xml.readerwriter/4.3.0",
      "hashPath": "system.xml.readerwriter.4.3.0.nupkg.sha512"
    },
    "System.Xml.XDocument/4.3.0": {
      "type": "package",
      "serviceable": true,
      "sha512": "sha512-5zJ0XDxAIg8iy+t4aMnQAu0MqVbqyvfoUVl1yDV61xdo3Vth45oA2FoY4pPkxYAH5f8ixpmTqXeEIya95x0aCQ==",
      "path": "system.xml.xdocument/4.3.0",
      "hashPath": "system.xml.xdocument.4.3.0.nupkg.sha512"
    },
    "RobinBird.Logging.Runtime/1.0.0": {
      "type": "project",
      "serviceable": false,
      "sha512": ""
    },
    "RobinBird.Utilities.Runtime/1.0.0": {
      "type": "project",
      "serviceable": false,
      "sha512": ""
    },
    "Shygen.Runtime/1.0.0": {
      "type": "project",
      "serviceable": false,
      "sha512": ""
    }
  }
}